"{\"created_at\":\"Mon Mar 24 23:27:22 +0000 2014\",\"id\":448239681688580097,\"id_str\":\"448239681688580097\",\"text\":\"naa se que hacer!\",\"source\":\"web\",\"truncated\":false,\"in_reply_to_status_id\":null,\"in_reply_to_status_id_str\":null,\"in_reply_to_user_id\":null,\"in_reply_to_user_id_str\":null,\"in_reply_to_screen_name\":null,\"user\":{\"id\":2254486142,\"id_str\":\"2254486142\",\"name\":\" \\u2020\\u2202\\u264f- \\u263a\",\"screen_name\":\"TamyAcostaa\",\"location\":\"Dolores\\u2663 -\",\"url\":null,\"description\":\"Pero yo vivo a mi forma, \\nsin regla ni norma, es mucho mejor. \\u263b\",\"protected\":false,\"followers_count\":229,\"friends_count\":240,\"listed_count\":0,\"created_at\":\"Fri Dec 20 04:49:03 +0000 2013\",\"favourites_count\":25,\"utc_offset\":-10800,\"time_zone\":\"Brasilia\",\"geo_enabled\":false,\"verified\":false,\"statuses_count\":3590,\"lang\":\"es\",\"contributors_enabled\":false,\"is_translator\":false,\"is_translation_enabled\":false,\"profile_background_color\":\"131516\",\"profile_background_image_url\":\"http:\\/\\/pbs.twimg.com\\/profile_background_images\\/446532247848382464\\/1xrauUwd.png\",\"profile_background_image_url_https\":\"https:\\/\\/pbs.twimg.com\\/profile_background_images\\/446532247848382464\\/1xrauUwd.png\",\"profile_background_tile\":true,\"profile_image_url\":\"http:\\/\\/pbs.twimg.com\\/profile_images\\/446518079015510016\\/aZbYHHD3_normal.jpeg\",\"profile_image_url_https\":\"https:\\/\\/pbs.twimg.com\\/profile_images\\/446518079015510016\\/aZbYHHD3_normal.jpeg\",\"profile_banner_url\":\"https:\\/\\/pbs.twimg.com\\/profile_banners\\/2254486142\\/1395294897\",\"profile_link_color\":\"009999\",\"profile_sidebar_border_color\":\"EEEEEE\",\"profile_sidebar_fill_color\":\"EFEFEF\",\"profile_text_color\":\"333333\",\"profile_use_background_image\":false,\"default_profile\":false,\"default_profile_image\":false,\"following\":null,\"follow_request_sent\":null,\"notifications\":null},\"geo\":null,\"coordinates\":null,\"place\":null,\"contributors\":null,\"retweet_count\":0,\"favorite_count\":0,\"entities\":{\"hashtags\":[],\"symbols\":[],\"urls\":[],\"user_mentions\":[]},\"favorited\":false,\"retweeted\":false,\"filter_level\":\"medium\",\"lang\":\"es\"}"
"{\"created_at\":\"Mon Mar 24 23:27:22 +0000 2014\",\"id\":448239681688596481,\"id_str\":\"448239681688596481\",\"text\":\"@calle7_Ecuador donde esta Isabel #lunesdeeliminacioncalle7\",\"source\":\"\\u003ca href=\\\"https:\\/\\/mobile.twitter.com\\\" rel=\\\"nofollow\\\"\\u003eMobile Web (M2)\\u003c\\/a\\u003e\",\"truncated\":false,\"in_reply_to_status_id\":null,\"in_reply_to_status_id_str\":null,\"in_reply_to_user_id\":605983066,\"in_reply_to_user_id_str\":\"605983066\",\"in_reply_to_screen_name\":\"calle7_Ecuador\",\"user\":{\"id\":232341501,\"id_str\":\"232341501\",\"name\":\"Oliver Hank\",\"screen_name\":\"checkmateandres\",\"location\":\"ecuador\",\"url\":null,\"description\":\"Estudiante de licenciatura en computacion, maestro y filantropo\",\"protected\":false,\"followers_count\":18,\"friends_count\":170,\"listed_count\":0,\"created_at\":\"Thu Dec 30 22:07:28 +0000 2010\",\"favourites_count\":10,\"utc_offset\":-18000,\"time_zone\":\"Central Time (US & Canada)\",\"geo_enabled\":false,\"verified\":false,\"statuses_count\":424,\"lang\":\"es\",\"contributors_enabled\":false,\"is_translator\":false,\"is_translation_enabled\":false,\"profile_background_color\":\"C0DEED\",\"profile_background_image_url\":\"http:\\/\\/abs.twimg.com\\/images\\/themes\\/theme1\\/bg.png\",\"profile_background_image_url_https\":\"https:\\/\\/abs.twimg.com\\/images\\/themes\\/theme1\\/bg.png\",\"profile_background_tile\":false,\"profile_image_url\":\"http:\\/\\/pbs.twimg.com\\/profile_images\\/2683811074\\/f9e07b1b659a43c89c0d907c285d05bd_normal.jpeg\",\"profile_image_url_https\":\"https:\\/\\/pbs.twimg.com\\/profile_images\\/2683811074\\/f9e07b1b659a43c89c0d907c285d05bd_normal.jpeg\",\"profile_banner_url\":\"https:\\/\\/pbs.twimg.com\\/profile_banners\\/232341501\\/1383853316\",\"profile_link_color\":\"0084B4\",\"profile_sidebar_border_color\":\"C0DEED\",\"profile_sidebar_fill_color\":\"DDEEF6\",\"profile_text_color\":\"333333\",\"profile_use_background_image\":true,\"default_profile\":true,\"default_profile_image\":false,\"following\":null,\"follow_request_sent\":null,\"notifications\":null},\"geo\":null,\"coordinates\":null,\"place\":null,\"contributors\":null,\"retweet_count\":0,\"favorite_count\":0,\"entities\":{\"hashtags\":[{\"text\":\"lunesdeeliminacioncalle7\",\"indices\":[34,59]}],\"symbols\":[],\"urls\":[],\"user_mentions\":[{\"screen_name\":\"calle7_Ecuador\",\"name\":\"Calle7-TC\",\"id\":605983066,\"id_str\":\"605983066\",\"indices\":[0,15]}]},\"favorited\":false,\"retweeted\":false,\"filter_level\":\"medium\",\"lang\":\"es\"}"
"{\"delete\":{\"status\":{\"id\":104699244056805376,\"user_id\":80117805,\"id_str\":\"104699244056805376\",\"user_id_str\":\"80117805\"}}}"
"{\"created_at\":\"Mon Mar 24 23:27:22 +0000 2014\",\"id\":448239681688592384,\"id_str\":\"448239681688592384\",\"text\":\"RT @_SignosdeHoje: #LIBRA Hor\\u00f3scopo de HOJE:  http:\\/\\/t.co\\/INqIisUgvC .\",\"source\":\"\\u003ca href=\\\"https:\\/\\/about.twitter.com\\/products\\/tweetdeck\\\" rel=\\\"nofollow\\\"\\u003eTweetDeck\\u003c\\/a\\u003e\",\"truncated\":false,\"in_reply_to_status_id\":null,\"in_reply_to_status_id_str\":null,\"in_reply_to_user_id\":null,\"in_reply_to_user_id_str\":null,\"in_reply_to_screen_name\":null,\"user\":{\"id\":1167038664,\"id_str\":\"1167038664\",\"name\":\"patetamos \\u2122\",\"screen_name\":\"patetamos\",\"location\":\"\",\"url\":null,\"description\":\"Eu tu\\u00edto porque o Twitter existe, e a minha vida \\u00e9 incompleta, n\\u00e3o sou alegre nem sou triste: Sou pateta.\",\"protected\":false,\"followers_count\":22310,\"friends_count\":19137,\"listed_count\":8,\"created_at\":\"Sun Feb 10 21:14:22 +0000 2013\",\"favourites_count\":11,\"utc_offset\":-10800,\"time_zone\":\"Brasilia\",\"geo_enabled\":false,\"verified\":false,\"statuses_count\":30080,\"lang\":\"pt\",\"contributors_enabled\":false,\"is_translator\":false,\"is_translation_enabled\":false,\"profile_background_color\":\"FFFFFF\",\"profile_background_image_url\":\"http:\\/\\/abs.twimg.com\\/images\\/themes\\/theme1\\/bg.png\",\"profile_background_image_url_https\":\"https:\\/\\/abs.twimg.com\\/images\\/themes\\/theme1\\/bg.png\",\"profile_background_tile\":true,\"profile_image_url\":\"http:\\/\\/pbs.twimg.com\\/profile_images\\/446831806633873408\\/BP2dAn_k_normal.jpeg\",\"profile_image_url_https\":\"https:\\/\\/pbs.twimg.com\\/profile_images\\/446831806633873408\\/BP2dAn_k_normal.jpeg\",\"profile_banner_url\":\"https:\\/\\/pbs.twimg.com\\/profile_banners\\/1167038664\\/1395367960\",\"profile_link_color\":\"059109\",\"profile_sidebar_border_color\":\"000000\",\"profile_sidebar_fill_color\":\"DDEEF6\",\"profile_text_color\":\"333333\",\"profile_use_background_image\":false,\"default_profile\":false,\"default_profile_image\":false,\"following\":null,\"follow_request_sent\":null,\"notifications\":null},\"geo\":null,\"coordinates\":null,\"place\":null,\"contributors\":null,\"retweeted_status\":{\"created_at\":\"Mon Mar 24 23:20:29 +0000 2014\",\"id\":448237950007263232,\"id_str\":\"448237950007263232\",\"text\":\"#LIBRA Hor\\u00f3scopo de HOJE:  http:\\/\\/t.co\\/INqIisUgvC .\",\"source\":\"web\",\"truncated\":false,\"in_reply_to_status_id\":null,\"in_reply_to_status_id_str\":null,\"in_reply_to_user_id\":null,\"in_reply_to_user_id_str\":null,\"in_reply_to_screen_name\":null,\"user\":{\"id\":369773997,\"id_str\":\"369773997\",\"name\":\"Apenas Signos \\u262e\",\"screen_name\":\"_SignosdeHoje\",\"location\":\"\",\"url\":\"http:\\/\\/www.signoshoje.blogspot.com.br\\/\",\"description\":\"Leia tudo sobre seu signo diariamente acessando nosso site!! Contato: contatosignoshoje@gmail.com\",\"protected\":false,\"followers_count\":207055,\"friends_count\":3342,\"listed_count\":992,\"created_at\":\"Wed Sep 07 22:46:07 +0000 2011\",\"favourites_count\":197,\"utc_offset\":-10800,\"time_zone\":\"Brasilia\",\"geo_enabled\":false,\"verified\":false,\"statuses_count\":12125,\"lang\":\"pt\",\"contributors_enabled\":false,\"is_translator\":false,\"is_translation_enabled\":false,\"profile_background_color\":\"C0DEED\",\"profile_background_image_url\":\"http:\\/\\/pbs.twimg.com\\/profile_background_images\\/433868298107629568\\/x6dqbwKd.jpeg\",\"profile_background_image_url_https\":\"https:\\/\\/pbs.twimg.com\\/profile_background_images\\/433868298107629568\\/x6dqbwKd.jpeg\",\"profile_background_tile\":true,\"profile_image_url\":\"http:\\/\\/pbs.twimg.com\\/profile_images\\/430892460244336640\\/7mbhCeYo_normal.jpeg\",\"profile_image_url_https\":\"https:\\/\\/pbs.twimg.com\\/profile_images\\/430892460244336640\\/7mbhCeYo_normal.jpeg\",\"profile_banner_url\":\"https:\\/\\/pbs.twimg.com\\/profile_banners\\/369773997\\/1392277303\",\"profile_link_color\":\"0084B4\",\"profile_sidebar_border_color\":\"FFFFFF\",\"profile_sidebar_fill_color\":\"DDEEF6\",\"profile_text_color\":\"333333\",\"profile_use_background_image\":true,\"default_profile\":false,\"default_profile_image\":false,\"following\":null,\"follow_request_sent\":null,\"notifications\":null},\"geo\":null,\"coordinates\":null,\"place\":null,\"contributors\":null,\"retweet_count\":2,\"favorite_count\":1,\"entities\":{\"hashtags\":[{\"text\":\"LIBRA\",\"indices\":[0,6]}],\"symbols\":[],\"urls\":[{\"url\":\"http:\\/\\/t.co\\/INqIisUgvC\",\"expanded_url\":\"http:\\/\\/bit.ly\\/1hUlJ3k\",\"display_url\":\"bit.ly\\/1hUlJ3k\",\"indices\":[27,49]}],\"user_mentions\":[]},\"favorited\":false,\"retweeted\":false,\"possibly_sensitive\":false,\"lang\":\"pt\"},\"retweet_count\":0,\"favorite_count\":0,\"entities\":{\"hashtags\":[{\"text\":\"LIBRA\",\"indices\":[19,25]}],\"symbols\":[],\"urls\":[{\"url\":\"http:\\/\\/t.co\\/INqIisUgvC\",\"expanded_url\":\"http:\\/\\/bit.ly\\/1hUlJ3k\",\"display_url\":\"bit.ly\\/1hUlJ3k\",\"indices\":[46,68]}],\"user_mentions\":[{\"screen_name\":\"_SignosdeHoje\",\"name\":\"Apenas Signos \\u262e\",\"id\":369773997,\"id_str\":\"369773997\",\"indices\":[3,17]}]},\"favorited\":false,\"retweeted\":false,\"possibly_sensitive\":false,\"filter_level\":\"medium\",\"lang\":\"pt\"}"
"{\"created_at\":\"Mon Mar 24 23:27:22 +0000 2014\",\"id\":448239681696976896,\"id_str\":\"448239681696976896\",\"text\":\"#HBK In Your House! @ Lockwood's Beach House http:\\/\\/t.co\\/E2J2hskfzN\",\"source\":\"\\u003ca href=\\\"http:\\/\\/instagram.com\\\" rel=\\\"nofollow\\\"\\u003eInstagram\\u003c\\/a\\u003e\",\"truncated\":false,\"in_reply_to_status_id\":null,\"in_reply_to_status_id_str\":null,\"in_reply_to_user_id\":null,\"in_reply_to_user_id_str\":null,\"in_reply_to_screen_name\":null,\"user\":{\"id\":320845435,\"id_str\":\"320845435\",\"name\":\"Patrick R. Lockwood\",\"screen_name\":\"GoodTimePatTV\",\"location\":\"\",\"url\":\"http:\\/\\/www.instagram.com\\/goodtimepattv\",\"description\":\"CO-OWNER of \\u00a9P.R.L. Marsh In Season Hunting\\/ Off Season Stand-up Comedian & Producing.\",\"protected\":false,\"followers_count\":153,\"friends_count\":62,\"listed_count\":3,\"created_at\":\"Mon Jun 20 16:35:25 +0000 2011\",\"favourites_count\":829,\"utc_offset\":-14400,\"time_zone\":\"Eastern Time (US & Canada)\",\"geo_enabled\":true,\"verified\":false,\"statuses_count\":9327,\"lang\":\"en\",\"contributors_enabled\":false,\"is_translator\":false,\"is_translation_enabled\":false,\"profile_background_color\":\"000000\",\"profile_background_image_url\":\"http:\\/\\/pbs.twimg.com\\/profile_background_images\\/665744202\\/a51d58c2849f235bf755c357884ef7d1.jpeg\",\"profile_background_image_url_https\":\"https:\\/\\/pbs.twimg.com\\/profile_background_images\\/665744202\\/a51d58c2849f235bf755c357884ef7d1.jpeg\",\"profile_background_tile\":true,\"profile_image_url\":\"http:\\/\\/pbs.twimg.com\\/profile_images\\/443996113914187776\\/tPomztQL_normal.jpeg\",\"profile_image_url_https\":\"https:\\/\\/pbs.twimg.com\\/profile_images\\/443996113914187776\\/tPomztQL_normal.jpeg\",\"profile_banner_url\":\"https:\\/\\/pbs.twimg.com\\/profile_banners\\/320845435\\/1394690031\",\"profile_link_color\":\"4E8085\",\"profile_sidebar_border_color\":\"FFFFFF\",\"profile_sidebar_fill_color\":\"050505\",\"profile_text_color\":\"08FC00\",\"profile_use_background_image\":true,\"default_profile\":false,\"default_profile_image\":false,\"following\":null,\"follow_request_sent\":null,\"notifications\":null},\"geo\":{\"type\":\"Point\",\"coordinates\":[41.60819531,-83.09518516]},\"coordinates\":{\"type\":\"Point\",\"coordinates\":[-83.09518516,41.60819531]},\"place\":{\"id\":\"de599025180e2ee7\",\"url\":\"https:\\/\\/api.twitter.com\\/1.1\\/geo\\/id\\/de599025180e2ee7.json\",\"place_type\":\"admin\",\"name\":\"Ohio\",\"full_name\":\"Ohio, USA\",\"country_code\":\"US\",\"country\":\"United States\",\"contained_within\":[],\"bounding_box\":{\"type\":\"Polygon\",\"coordinates\":[[[-84.820272,38.403186],[-84.820272,42.327133],[-80.518626,42.327133],[-80.518626,38.403186]]]},\"attributes\":{}},\"contributors\":null,\"retweet_count\":0,\"favorite_count\":0,\"entities\":{\"hashtags\":[{\"text\":\"HBK\",\"indices\":[0,4]}],\"symbols\":[],\"urls\":[{\"url\":\"http:\\/\\/t.co\\/E2J2hskfzN\",\"expanded_url\":\"http:\\/\\/instagram.com\\/p\\/l8Zq-dqhtK\\/\",\"display_url\":\"instagram.com\\/p\\/l8Zq-dqhtK\\/\",\"indices\":[45,67]}],\"user_mentions\":[]},\"favorited\":false,\"retweeted\":false,\"possibly_sensitive\":false,\"filter_level\":\"medium\",\"lang\":\"en\"}"
"{\"created_at\":\"Mon Mar 24 23:27:22 +0000 2014\",\"id\":448239681667629056,\"id_str\":\"448239681667629056\",\"text\":\"RT @AlbertoPerezptt: @MariaFergoz Gracias guapisima\",\"source\":\"\\u003ca href=\\\"http:\\/\\/twitter.com\\/download\\/android\\\" rel=\\\"nofollow\\\"\\u003eTwitter for Android\\u003c\\/a\\u003e\",\"truncated\":false,\"in_reply_to_status_id\":null,\"in_reply_to_status_id_str\":null,\"in_reply_to_user_id\":null,\"in_reply_to_user_id_str\":null,\"in_reply_to_screen_name\":null,\"user\":{\"id\":366552593,\"id_str\":\"366552593\",\"name\":\"MAR\\u00cdA\",\"screen_name\":\"MariaFergoz\",\"location\":\"\",\"url\":null,\"description\":\"'Que r\\u00edan tus ojos al verme llegar'                                                           @ainoadpv\",\"protected\":false,\"followers_count\":385,\"friends_count\":332,\"listed_count\":0,\"created_at\":\"Fri Sep 02 11:34:41 +0000 2011\",\"favourites_count\":395,\"utc_offset\":3600,\"time_zone\":\"Amsterdam\",\"geo_enabled\":true,\"verified\":false,\"statuses_count\":8530,\"lang\":\"es\",\"contributors_enabled\":false,\"is_translator\":false,\"is_translation_enabled\":false,\"profile_background_color\":\"7FFFF9\",\"profile_background_image_url\":\"http:\\/\\/pbs.twimg.com\\/profile_background_images\\/406860746\\/image__12_.jpg\",\"profile_background_image_url_https\":\"https:\\/\\/pbs.twimg.com\\/profile_background_images\\/406860746\\/image__12_.jpg\",\"profile_background_tile\":true,\"profile_image_url\":\"http:\\/\\/pbs.twimg.com\\/profile_images\\/433251358297575424\\/tZ1WrNf2_normal.jpeg\",\"profile_image_url_https\":\"https:\\/\\/pbs.twimg.com\\/profile_images\\/433251358297575424\\/tZ1WrNf2_normal.jpeg\",\"profile_banner_url\":\"https:\\/\\/pbs.twimg.com\\/profile_banners\\/366552593\\/1392130113\",\"profile_link_color\":\"8C64FA\",\"profile_sidebar_border_color\":\"FFFFFF\",\"profile_sidebar_fill_color\":\"E3E2DE\",\"profile_text_color\":\"634047\",\"profile_use_background_image\":true,\"default_profile\":false,\"default_profile_image\":false,\"following\":null,\"follow_request_sent\":null,\"notifications\":null},\"geo\":null,\"coordinates\":null,\"place\":null,\"contributors\":null,\"retweeted_status\":{\"created_at\":\"Mon Mar 24 19:28:51 +0000 2014\",\"id\":448179655095623680,\"id_str\":\"448179655095623680\",\"text\":\"@MariaFergoz Gracias guapisima\",\"source\":\"\\u003ca href=\\\"http:\\/\\/twitter.com\\/download\\/android\\\" rel=\\\"nofollow\\\"\\u003eTwitter for Android\\u003c\\/a\\u003e\",\"truncated\":false,\"in_reply_to_status_id\":448177821408841728,\"in_reply_to_status_id_str\":\"448177821408841728\",\"in_reply_to_user_id\":366552593,\"in_reply_to_user_id_str\":\"366552593\",\"in_reply_to_screen_name\":\"MariaFergoz\",\"user\":{\"id\":1067558268,\"id_str\":\"1067558268\",\"name\":\"Alberto Perez \",\"screen_name\":\"AlbertoPerezptt\",\"location\":\"Mejorada\",\"url\":null,\"description\":\"LA 15'\",\"protected\":false,\"followers_count\":333,\"friends_count\":307,\"listed_count\":0,\"created_at\":\"Mon Jan 07 06:08:32 +0000 2013\",\"favourites_count\":143,\"utc_offset\":3600,\"time_zone\":\"Amsterdam\",\"geo_enabled\":false,\"verified\":false,\"statuses_count\":2147,\"lang\":\"es\",\"contributors_enabled\":false,\"is_translator\":false,\"is_translation_enabled\":false,\"profile_background_color\":\"C0DEED\",\"profile_background_image_url\":\"http:\\/\\/abs.twimg.com\\/images\\/themes\\/theme1\\/bg.png\",\"profile_background_image_url_https\":\"https:\\/\\/abs.twimg.com\\/images\\/themes\\/theme1\\/bg.png\",\"profile_background_tile\":false,\"profile_image_url\":\"http:\\/\\/pbs.twimg.com\\/profile_images\\/378800000410653134\\/660c7d859c3d8db21eb5feed780e2061_normal.jpeg\",\"profile_image_url_https\":\"https:\\/\\/pbs.twimg.com\\/profile_images\\/378800000410653134\\/660c7d859c3d8db21eb5feed780e2061_normal.jpeg\",\"profile_banner_url\":\"https:\\/\\/pbs.twimg.com\\/profile_banners\\/1067558268\\/1393083244\",\"profile_link_color\":\"0084B4\",\"profile_sidebar_border_color\":\"C0DEED\",\"profile_sidebar_fill_color\":\"DDEEF6\",\"profile_text_color\":\"333333\",\"profile_use_background_image\":true,\"default_profile\":true,\"default_profile_image\":false,\"following\":null,\"follow_request_sent\":null,\"notifications\":null},\"geo\":null,\"coordinates\":null,\"place\":null,\"contributors\":null,\"retweet_count\":1,\"favorite_count\":0,\"entities\":{\"hashtags\":[],\"symbols\":[],\"urls\":[],\"user_mentions\":[{\"screen_name\":\"MariaFergoz\",\"name\":\"MAR\\u00cdA\",\"id\":366552593,\"id_str\":\"366552593\",\"indices\":[0,12]}]},\"favorited\":false,\"retweeted\":false,\"lang\":\"es\"},\"retweet_count\":0,\"favorite_count\":0,\"entities\":{\"hashtags\":[],\"symbols\":[],\"urls\":[],\"user_mentions\":[{\"screen_name\":\"AlbertoPerezptt\",\"name\":\"Alberto Perez \",\"id\":1067558268,\"id_str\":\"1067558268\",\"indices\":[3,19]},{\"screen_name\":\"MariaFergoz\",\"name\":\"MAR\\u00cdA\",\"id\":366552593,\"id_str\":\"366552593\",\"indices\":[21,33]}]},\"favorited\":false,\"retweeted\":false,\"filter_level\":\"medium\",\"lang\":\"es\"}"
"{\"created_at\":\"Mon Mar 24 23:27:22 +0000 2014\",\"id\":448239681688600576,\"id_str\":\"448239681688600576\",\"text\":\"RT @_SignosdeHoje: #LIBRA Hor\\u00f3scopo de HOJE:  http:\\/\\/t.co\\/INqIisUgvC .\",\"source\":\"\\u003ca href=\\\"https:\\/\\/about.twitter.com\\/products\\/tweetdeck\\\" rel=\\\"nofollow\\\"\\u003eTweetDeck\\u003c\\/a\\u003e\",\"truncated\":false,\"in_reply_to_status_id\":null,\"in_reply_to_status_id_str\":null,\"in_reply_to_user_id\":null,\"in_reply_to_user_id_str\":null,\"in_reply_to_screen_name\":null,\"user\":{\"id\":1263506714,\"id_str\":\"1263506714\",\"name\":\"zoeiramos \\u2122\",\"screen_name\":\"zoeiramos\",\"location\":\"\",\"url\":null,\"description\":\"Eu zoeiro tu zoeiras ele zoeira n\\u00f3s zoeiramos v\\u00f3s zoeirais eles zoeiram.\",\"protected\":false,\"followers_count\":32458,\"friends_count\":28155,\"listed_count\":14,\"created_at\":\"Wed Mar 13 03:52:31 +0000 2013\",\"favourites_count\":498,\"utc_offset\":-10800,\"time_zone\":\"Brasilia\",\"geo_enabled\":true,\"verified\":false,\"statuses_count\":87389,\"lang\":\"pt\",\"contributors_enabled\":false,\"is_translator\":false,\"is_translation_enabled\":false,\"profile_background_color\":\"FFFFFF\",\"profile_background_image_url\":\"http:\\/\\/pbs.twimg.com\\/profile_background_images\\/378800000125035092\\/d912df0a82613294abbd27ceff80170d.jpeg\",\"profile_background_image_url_https\":\"https:\\/\\/pbs.twimg.com\\/profile_background_images\\/378800000125035092\\/d912df0a82613294abbd27ceff80170d.jpeg\",\"profile_background_tile\":false,\"profile_image_url\":\"http:\\/\\/pbs.twimg.com\\/profile_images\\/446827610014633984\\/1o6uz0n2_normal.jpeg\",\"profile_image_url_https\":\"https:\\/\\/pbs.twimg.com\\/profile_images\\/446827610014633984\\/1o6uz0n2_normal.jpeg\",\"profile_banner_url\":\"https:\\/\\/pbs.twimg.com\\/profile_banners\\/1263506714\\/1395367122\",\"profile_link_color\":\"FF4000\",\"profile_sidebar_border_color\":\"FFFFFF\",\"profile_sidebar_fill_color\":\"DDEEF6\",\"profile_text_color\":\"333333\",\"profile_use_background_image\":false,\"default_profile\":false,\"default_profile_image\":false,\"following\":null,\"follow_request_sent\":null,\"notifications\":null},\"geo\":null,\"coordinates\":null,\"place\":null,\"contributors\":null,\"retweeted_status\":{\"created_at\":\"Mon Mar 24 23:20:29 +0000 2014\",\"id\":448237950007263232,\"id_str\":\"448237950007263232\",\"text\":\"#LIBRA Hor\\u00f3scopo de HOJE:  http:\\/\\/t.co\\/INqIisUgvC .\",\"source\":\"web\",\"truncated\":false,\"in_reply_to_status_id\":null,\"in_reply_to_status_id_str\":null,\"in_reply_to_user_id\":null,\"in_reply_to_user_id_str\":null,\"in_reply_to_screen_name\":null,\"user\":{\"id\":369773997,\"id_str\":\"369773997\",\"name\":\"Apenas Signos \\u262e\",\"screen_name\":\"_SignosdeHoje\",\"location\":\"\",\"url\":\"http:\\/\\/www.signoshoje.blogspot.com.br\\/\",\"description\":\"Leia tudo sobre seu signo diariamente acessando nosso site!! Contato: contatosignoshoje@gmail.com\",\"protected\":false,\"followers_count\":207055,\"friends_count\":3342,\"listed_count\":992,\"created_at\":\"Wed Sep 07 22:46:07 +0000 2011\",\"favourites_count\":197,\"utc_offset\":-10800,\"time_zone\":\"Brasilia\",\"geo_enabled\":false,\"verified\":false,\"statuses_count\":12125,\"lang\":\"pt\",\"contributors_enabled\":false,\"is_translator\":false,\"is_translation_enabled\":false,\"profile_background_color\":\"C0DEED\",\"profile_background_image_url\":\"http:\\/\\/pbs.twimg.com\\/profile_background_images\\/433868298107629568\\/x6dqbwKd.jpeg\",\"profile_background_image_url_https\":\"https:\\/\\/pbs.twimg.com\\/profile_background_images\\/433868298107629568\\/x6dqbwKd.jpeg\",\"profile_background_tile\":true,\"profile_image_url\":\"http:\\/\\/pbs.twimg.com\\/profile_images\\/430892460244336640\\/7mbhCeYo_normal.jpeg\",\"profile_image_url_https\":\"https:\\/\\/pbs.twimg.com\\/profile_images\\/430892460244336640\\/7mbhCeYo_normal.jpeg\",\"profile_banner_url\":\"https:\\/\\/pbs.twimg.com\\/profile_banners\\/369773997\\/1392277303\",\"profile_link_color\":\"0084B4\",\"profile_sidebar_border_color\":\"FFFFFF\",\"profile_sidebar_fill_color\":\"DDEEF6\",\"profile_text_color\":\"333333\",\"profile_use_background_image\":true,\"default_profile\":false,\"default_profile_image\":false,\"following\":null,\"follow_request_sent\":null,\"notifications\":null},\"geo\":null,\"coordinates\":null,\"place\":null,\"contributors\":null,\"retweet_count\":2,\"favorite_count\":1,\"entities\":{\"hashtags\":[{\"text\":\"LIBRA\",\"indices\":[0,6]}],\"symbols\":[],\"urls\":[{\"url\":\"http:\\/\\/t.co\\/INqIisUgvC\",\"expanded_url\":\"http:\\/\\/bit.ly\\/1hUlJ3k\",\"display_url\":\"bit.ly\\/1hUlJ3k\",\"indices\":[27,49]}],\"user_mentions\":[]},\"favorited\":false,\"retweeted\":false,\"possibly_sensitive\":false,\"lang\":\"pt\"},\"retweet_count\":0,\"favorite_count\":0,\"entities\":{\"hashtags\":[{\"text\":\"LIBRA\",\"indices\":[19,25]}],\"symbols\":[],\"urls\":[{\"url\":\"http:\\/\\/t.co\\/INqIisUgvC\",\"expanded_url\":\"http:\\/\\/bit.ly\\/1hUlJ3k\",\"display_url\":\"bit.ly\\/1hUlJ3k\",\"indices\":[46,68]}],\"user_mentions\":[{\"screen_name\":\"_SignosdeHoje\",\"name\":\"Apenas Signos \\u262e\",\"id\":369773997,\"id_str\":\"369773997\",\"indices\":[3,17]}]},\"favorited\":false,\"retweeted\":false,\"possibly_sensitive\":false,\"filter_level\":\"medium\",\"lang\":\"pt\"}"
"{\"created_at\":\"Mon Mar 24 23:27:22 +0000 2014\",\"id\":448239681671823360,\"id_str\":\"448239681671823360\",\"text\":\"RT @iLikeGirlsDaily: The last 3 Cat sweaters (size L). RETWEET if you want em. I'll choose 3 randoms in 3hrs and DM. http:\\/\\/t.co\\/U6GxGhyrjf\",\"source\":\"\\u003ca href=\\\"http:\\/\\/twitter.com\\/download\\/android\\\" rel=\\\"nofollow\\\"\\u003eTwitter for Android\\u003c\\/a\\u003e\",\"truncated\":false,\"in_reply_to_status_id\":null,\"in_reply_to_status_id_str\":null,\"in_reply_to_user_id\":null,\"in_reply_to_user_id_str\":null,\"in_reply_to_screen_name\":null,\"user\":{\"id\":920164016,\"id_str\":\"920164016\",\"name\":\"Aerol Abance\",\"screen_name\":\"Aerol_Abance\",\"location\":\"\",\"url\":null,\"description\":\"IG: aerol_sweatshirt\",\"protected\":false,\"followers_count\":192,\"friends_count\":178,\"listed_count\":0,\"created_at\":\"Fri Nov 02 01:29:30 +0000 2012\",\"favourites_count\":872,\"utc_offset\":-14400,\"time_zone\":\"Eastern Time (US & Canada)\",\"geo_enabled\":false,\"verified\":false,\"statuses_count\":549,\"lang\":\"en\",\"contributors_enabled\":false,\"is_translator\":false,\"is_translation_enabled\":false,\"profile_background_color\":\"C0DEED\",\"profile_background_image_url\":\"http:\\/\\/abs.twimg.com\\/images\\/themes\\/theme1\\/bg.png\",\"profile_background_image_url_https\":\"https:\\/\\/abs.twimg.com\\/images\\/themes\\/theme1\\/bg.png\",\"profile_background_tile\":false,\"profile_image_url\":\"http:\\/\\/pbs.twimg.com\\/profile_images\\/430879740959162368\\/D330zs0U_normal.jpeg\",\"profile_image_url_https\":\"https:\\/\\/pbs.twimg.com\\/profile_images\\/430879740959162368\\/D330zs0U_normal.jpeg\",\"profile_banner_url\":\"https:\\/\\/pbs.twimg.com\\/profile_banners\\/920164016\\/1393111240\",\"profile_link_color\":\"0084B4\",\"profile_sidebar_border_color\":\"C0DEED\",\"profile_sidebar_fill_color\":\"DDEEF6\",\"profile_text_color\":\"333333\",\"profile_use_background_image\":true,\"default_profile\":true,\"default_profile_image\":false,\"following\":null,\"follow_request_sent\":null,\"notifications\":null},\"geo\":null,\"coordinates\":null,\"place\":null,\"contributors\":null,\"retweeted_status\":{\"created_at\":\"Mon Mar 24 23:20:08 +0000 2014\",\"id\":448237860987363328,\"id_str\":\"448237860987363328\",\"text\":\"The last 3 Cat sweaters (size L). RETWEET if you want em. I'll choose 3 randoms in 3hrs and DM. http:\\/\\/t.co\\/U6GxGhyrjf\",\"source\":\"\\u003ca href=\\\"http:\\/\\/bufferapp.com\\\" rel=\\\"nofollow\\\"\\u003eBuffer\\u003c\\/a\\u003e\",\"truncated\":false,\"in_reply_to_status_id\":null,\"in_reply_to_status_id_str\":null,\"in_reply_to_user_id\":null,\"in_reply_to_user_id_str\":null,\"in_reply_to_screen_name\":null,\"user\":{\"id\":97225858,\"id_str\":\"97225858\",\"name\":\"iLGD\",\"screen_name\":\"iLikeGirlsDaily\",\"location\":\"iLikeGirlsDaily@gmail.com\",\"url\":\"http:\\/\\/iLikeGirlsDaily.com\",\"description\":\"The number 1 girl posting Twitter\\u270c - Follow: @iLikeSEXDaily and @CozImAGuy  - *18+ only*. GOLF.\",\"protected\":false,\"followers_count\":1465013,\"friends_count\":30366,\"listed_count\":4652,\"created_at\":\"Wed Dec 16 15:04:35 +0000 2009\",\"favourites_count\":15993,\"utc_offset\":-14400,\"time_zone\":\"Eastern Time (US & Canada)\",\"geo_enabled\":false,\"verified\":false,\"statuses_count\":86922,\"lang\":\"en\",\"contributors_enabled\":false,\"is_translator\":false,\"is_translation_enabled\":false,\"profile_background_color\":\"FFFFFF\",\"profile_background_image_url\":\"http:\\/\\/pbs.twimg.com\\/profile_background_images\\/444866010252705793\\/xEW1K9Gl.jpeg\",\"profile_background_image_url_https\":\"https:\\/\\/pbs.twimg.com\\/profile_background_images\\/444866010252705793\\/xEW1K9Gl.jpeg\",\"profile_background_tile\":true,\"profile_image_url\":\"http:\\/\\/pbs.twimg.com\\/profile_images\\/378800000452385629\\/e5342a246b6a5f5b443407b182c1b62d_normal.png\",\"profile_image_url_https\":\"https:\\/\\/pbs.twimg.com\\/profile_images\\/378800000452385629\\/e5342a246b6a5f5b443407b182c1b62d_normal.png\",\"profile_banner_url\":\"https:\\/\\/pbs.twimg.com\\/profile_banners\\/97225858\\/1394903924\",\"profile_link_color\":\"2AB6F7\",\"profile_sidebar_border_color\":\"FFFFFF\",\"profile_sidebar_fill_color\":\"EFEFEF\",\"profile_text_color\":\"333333\",\"profile_use_background_image\":false,\"default_profile\":false,\"default_profile_image\":false,\"following\":null,\"follow_request_sent\":null,\"notifications\":null},\"geo\":null,\"coordinates\":null,\"place\":null,\"contributors\":null,\"retweet_count\":1681,\"favorite_count\":149,\"entities\":{\"hashtags\":[],\"symbols\":[],\"urls\":[],\"user_mentions\":[],\"media\":[{\"id\":448237860794404865,\"id_str\":\"448237860794404865\",\"indices\":[96,118],\"media_url\":\"http:\\/\\/pbs.twimg.com\\/media\\/Bjh19aOIEAEVyD2.jpg\",\"media_url_https\":\"https:\\/\\/pbs.twimg.com\\/media\\/Bjh19aOIEAEVyD2.jpg\",\"url\":\"http:\\/\\/t.co\\/U6GxGhyrjf\",\"display_url\":\"pic.twitter.com\\/U6GxGhyrjf\",\"expanded_url\":\"http:\\/\\/twitter.com\\/iLikeGirlsDaily\\/status\\/448237860987363328\\/photo\\/1\",\"type\":\"photo\",\"sizes\":{\"medium\":{\"w\":600,\"h\":600,\"resize\":\"fit\"},\"large\":{\"w\":612,\"h\":612,\"resize\":\"fit\"},\"thumb\":{\"w\":150,\"h\":150,\"resize\":\"crop\"},\"small\":{\"w\":340,\"h\":340,\"resize\":\"fit\"}}}]},\"favorited\":false,\"retweeted\":false,\"possibly_sensitive\":true,\"lang\":\"en\"},\"retweet_count\":0,\"favorite_count\":0,\"entities\":{\"hashtags\":[],\"symbols\":[],\"urls\":[],\"user_mentions\":[{\"screen_name\":\"iLikeGirlsDaily\",\"name\":\"iLGD\",\"id\":97225858,\"id_str\":\"97225858\",\"indices\":[3,19]}],\"media\":[{\"id\":448237860794404865,\"id_str\":\"448237860794404865\",\"indices\":[117,139],\"media_url\":\"http:\\/\\/pbs.twimg.com\\/media\\/Bjh19aOIEAEVyD2.jpg\",\"media_url_https\":\"https:\\/\\/pbs.twimg.com\\/media\\/Bjh19aOIEAEVyD2.jpg\",\"url\":\"http:\\/\\/t.co\\/U6GxGhyrjf\",\"display_url\":\"pic.twitter.com\\/U6GxGhyrjf\",\"expanded_url\":\"http:\\/\\/twitter.com\\/iLikeGirlsDaily\\/status\\/448237860987363328\\/photo\\/1\",\"type\":\"photo\",\"sizes\":{\"medium\":{\"w\":600,\"h\":600,\"resize\":\"fit\"},\"large\":{\"w\":612,\"h\":612,\"resize\":\"fit\"},\"thumb\":{\"w\":150,\"h\":150,\"resize\":\"crop\"},\"small\":{\"w\":340,\"h\":340,\"resize\":\"fit\"}}}]},\"favorited\":false,\"retweeted\":false,\"possibly_sensitive\":false,\"filter_level\":\"medium\",\"lang\":\"en\"}"
"{\"created_at\":\"Mon Mar 24 23:27:22 +0000 2014\",\"id\":448239681667600384,\"id_str\":\"448239681667600384\",\"text\":\"RT @FilsDeSangoku: Quand t'es entrain de s\\u00e9cher les cour et t'aper\\u00e7ois ta m\\u00e8re au loin http:\\/\\/t.co\\/V4HHyRN45s\",\"source\":\"\\u003ca href=\\\"http:\\/\\/twitter.com\\/download\\/iphone\\\" rel=\\\"nofollow\\\"\\u003eTwitter for iPhone\\u003c\\/a\\u003e\",\"truncated\":false,\"in_reply_to_status_id\":null,\"in_reply_to_status_id_str\":null,\"in_reply_to_user_id\":null,\"in_reply_to_user_id_str\":null,\"in_reply_to_screen_name\":null,\"user\":{\"id\":1286977003,\"id_str\":\"1286977003\",\"name\":\"GOHAN\",\"screen_name\":\"nbelkane\",\"location\":\"sur le nuage supersonique\",\"url\":null,\"description\":null,\"protected\":false,\"followers_count\":280,\"friends_count\":130,\"listed_count\":1,\"created_at\":\"Thu Mar 21 21:07:29 +0000 2013\",\"favourites_count\":1370,\"utc_offset\":null,\"time_zone\":null,\"geo_enabled\":true,\"verified\":false,\"statuses_count\":16042,\"lang\":\"fr\",\"contributors_enabled\":false,\"is_translator\":false,\"is_translation_enabled\":false,\"profile_background_color\":\"C0DEED\",\"profile_background_image_url\":\"http:\\/\\/abs.twimg.com\\/images\\/themes\\/theme1\\/bg.png\",\"profile_background_image_url_https\":\"https:\\/\\/abs.twimg.com\\/images\\/themes\\/theme1\\/bg.png\",\"profile_background_tile\":false,\"profile_image_url\":\"http:\\/\\/pbs.twimg.com\\/profile_images\\/445989645869121537\\/BEpQy_9K_normal.jpeg\",\"profile_image_url_https\":\"https:\\/\\/pbs.twimg.com\\/profile_images\\/445989645869121537\\/BEpQy_9K_normal.jpeg\",\"profile_banner_url\":\"https:\\/\\/pbs.twimg.com\\/profile_banners\\/1286977003\\/1395607541\",\"profile_link_color\":\"0084B4\",\"profile_sidebar_border_color\":\"C0DEED\",\"profile_sidebar_fill_color\":\"DDEEF6\",\"profile_text_color\":\"333333\",\"profile_use_background_image\":true,\"default_profile\":true,\"default_profile_image\":false,\"following\":null,\"follow_request_sent\":null,\"notifications\":null},\"geo\":null,\"coordinates\":null,\"place\":null,\"contributors\":null,\"retweeted_status\":{\"created_at\":\"Mon Mar 10 00:03:50 +0000 2014\",\"id\":442813039130447872,\"id_str\":\"442813039130447872\",\"text\":\"Quand t'es entrain de s\\u00e9cher les cour et t'aper\\u00e7ois ta m\\u00e8re au loin http:\\/\\/t.co\\/V4HHyRN45s\",\"source\":\"\\u003ca href=\\\"http:\\/\\/twitter.com\\/download\\/iphone\\\" rel=\\\"nofollow\\\"\\u003eTwitter for iPhone\\u003c\\/a\\u003e\",\"truncated\":false,\"in_reply_to_status_id\":null,\"in_reply_to_status_id_str\":null,\"in_reply_to_user_id\":null,\"in_reply_to_user_id_str\":null,\"in_reply_to_screen_name\":null,\"user\":{\"id\":1597343965,\"id_str\":\"1597343965\",\"name\":\"Sangoten Le Mignon\",\"screen_name\":\"FilsDeSangoku\",\"location\":\"Parcelle 38\",\"url\":\"https:\\/\\/AdopteUnSaiyenMignon.com\",\"description\":\"Compte Officiel de Goten\",\"protected\":false,\"followers_count\":1033,\"friends_count\":1035,\"listed_count\":5,\"created_at\":\"Tue Jul 16 02:32:06 +0000 2013\",\"favourites_count\":456,\"utc_offset\":3600,\"time_zone\":\"Paris\",\"geo_enabled\":false,\"verified\":false,\"statuses_count\":12773,\"lang\":\"fr\",\"contributors_enabled\":false,\"is_translator\":false,\"is_translation_enabled\":false,\"profile_background_color\":\"C0DEED\",\"profile_background_image_url\":\"http:\\/\\/pbs.twimg.com\\/profile_background_images\\/378800000067615929\\/e247f7fc67691befdd4d45683570d6b4.jpeg\",\"profile_background_image_url_https\":\"https:\\/\\/pbs.twimg.com\\/profile_background_images\\/378800000067615929\\/e247f7fc67691befdd4d45683570d6b4.jpeg\",\"profile_background_tile\":true,\"profile_image_url\":\"http:\\/\\/pbs.twimg.com\\/profile_images\\/448214509069811712\\/i_IE-8VL_normal.jpeg\",\"profile_image_url_https\":\"https:\\/\\/pbs.twimg.com\\/profile_images\\/448214509069811712\\/i_IE-8VL_normal.jpeg\",\"profile_banner_url\":\"https:\\/\\/pbs.twimg.com\\/profile_banners\\/1597343965\\/1383258000\",\"profile_link_color\":\"0084B4\",\"profile_sidebar_border_color\":\"FFFFFF\",\"profile_sidebar_fill_color\":\"EFEFEF\",\"profile_text_color\":\"333333\",\"profile_use_background_image\":true,\"default_profile\":false,\"default_profile_image\":false,\"following\":null,\"follow_request_sent\":null,\"notifications\":null},\"geo\":null,\"coordinates\":null,\"place\":null,\"contributors\":null,\"retweet_count\":19,\"favorite_count\":1,\"entities\":{\"hashtags\":[],\"symbols\":[],\"urls\":[],\"user_mentions\":[],\"media\":[{\"id\":442813038945902592,\"id_str\":\"442813038945902592\",\"indices\":[68,90],\"media_url\":\"http:\\/\\/pbs.twimg.com\\/media\\/BiUwHOBIIAAzw3_.jpg\",\"media_url_https\":\"https:\\/\\/pbs.twimg.com\\/media\\/BiUwHOBIIAAzw3_.jpg\",\"url\":\"http:\\/\\/t.co\\/V4HHyRN45s\",\"display_url\":\"pic.twitter.com\\/V4HHyRN45s\",\"expanded_url\":\"http:\\/\\/twitter.com\\/FilsDeSangoku\\/status\\/442813039130447872\\/photo\\/1\",\"type\":\"photo\",\"sizes\":{\"medium\":{\"w\":600,\"h\":338,\"resize\":\"fit\"},\"thumb\":{\"w\":150,\"h\":150,\"resize\":\"crop\"},\"small\":{\"w\":340,\"h\":191,\"resize\":\"fit\"},\"large\":{\"w\":1024,\"h\":576,\"resize\":\"fit\"}}}]},\"favorited\":false,\"retweeted\":false,\"possibly_sensitive\":false,\"lang\":\"fr\"},\"retweet_count\":0,\"favorite_count\":0,\"entities\":{\"hashtags\":[],\"symbols\":[],\"urls\":[],\"user_mentions\":[{\"screen_name\":\"FilsDeSangoku\",\"name\":\"Sangoten Le Mignon\",\"id\":1597343965,\"id_str\":\"1597343965\",\"indices\":[3,17]}],\"media\":[{\"id\":442813038945902592,\"id_str\":\"442813038945902592\",\"indices\":[87,109],\"media_url\":\"http:\\/\\/pbs.twimg.com\\/media\\/BiUwHOBIIAAzw3_.jpg\",\"media_url_https\":\"https:\\/\\/pbs.twimg.com\\/media\\/BiUwHOBIIAAzw3_.jpg\",\"url\":\"http:\\/\\/t.co\\/V4HHyRN45s\",\"display_url\":\"pic.twitter.com\\/V4HHyRN45s\",\"expanded_url\":\"http:\\/\\/twitter.com\\/FilsDeSangoku\\/status\\/442813039130447872\\/photo\\/1\",\"type\":\"photo\",\"sizes\":{\"medium\":{\"w\":600,\"h\":338,\"resize\":\"fit\"},\"thumb\":{\"w\":150,\"h\":150,\"resize\":\"crop\"},\"small\":{\"w\":340,\"h\":191,\"resize\":\"fit\"},\"large\":{\"w\":1024,\"h\":576,\"resize\":\"fit\"}}}]},\"favorited\":false,\"retweeted\":false,\"possibly_sensitive\":false,\"filter_level\":\"medium\",\"lang\":\"fr\"}"
"{\"created_at\":\"Mon Mar 24 23:27:22 +0000 2014\",\"id\":448239681696591872,\"id_str\":\"448239681696591872\",\"text\":\"\\u30b0\\u30ec\\u30fc\\u30c8\\u304c1\\u756a\\u5370\\u8c61\\u3092\\u60aa\\u304f\\u3057\\u3066\\u308b\\u3093\\u3067\\u3059\\u304c\\u305d\\u308c\\u306f\\u30fb\\u30fb\\u30fb\\n(\\u30b0\\u30ec\\u30fc\\u30c8\\u306f\\u30db\\u30e2\\uff01)\",\"source\":\"\\u003ca href=\\\"https:\\/\\/twitter.com\\/mb_inast_bot\\\" rel=\\\"nofollow\\\"\\u003e\\u30e1\\u30d3\\u30a6\\u30b9\\u30b9\\u30ec\\u6c11bot\\u003c\\/a\\u003e\",\"truncated\":false,\"in_reply_to_status_id\":null,\"in_reply_to_status_id_str\":null,\"in_reply_to_user_id\":null,\"in_reply_to_user_id_str\":null,\"in_reply_to_screen_name\":null,\"user\":{\"id\":1617346956,\"id_str\":\"1617346956\",\"name\":\"\\u30e1\\u30d3\\u30a6\\u30b9\\u30b9\\u30ec\\u6c11bot\",\"screen_name\":\"mb_inast_bot\",\"location\":\"\",\"url\":null,\"description\":\"\\u3053\\u306ebot\\u306f\\u30e1\\u30d3\\u30a6\\u30b9\\u30b9\\u30ec\\u6c11\\u306e\\u304a\\u3082\\u3057\\u308d\\u3044\\u767a\\u8a00\\uff65\\u540d\\u8a00\\u306a\\u3069\\u3092\\u545f\\u3044\\u3066\\u3044\\u304d\\u307e\\u3059\\u3002\\u304a\\u5225\\u308c\\u306f\\u30d6\\u30ed\\u30c3\\u30af\\u3067\\u3002\\u30ea\\u30e0\\u3063\\u3066\\u30d5\\u30a9\\u30ed\\u30ef\\u30fc\\u7a3c\\u304e\\u3059\\u308b\\u5974\\u306f\\u90aa\\u9b54\",\"protected\":false,\"followers_count\":42,\"friends_count\":39,\"listed_count\":1,\"created_at\":\"Wed Jul 24 09:53:52 +0000 2013\",\"favourites_count\":12,\"utc_offset\":32400,\"time_zone\":\"Irkutsk\",\"geo_enabled\":false,\"verified\":false,\"statuses_count\":23316,\"lang\":\"ja\",\"contributors_enabled\":false,\"is_translator\":false,\"is_translation_enabled\":false,\"profile_background_color\":\"C0DEED\",\"profile_background_image_url\":\"http:\\/\\/abs.twimg.com\\/images\\/themes\\/theme1\\/bg.png\",\"profile_background_image_url_https\":\"https:\\/\\/abs.twimg.com\\/images\\/themes\\/theme1\\/bg.png\",\"profile_background_tile\":false,\"profile_image_url\":\"http:\\/\\/pbs.twimg.com\\/profile_images\\/378800000180344838\\/f8454420dde9f04520f90a012595cbb2_normal.png\",\"profile_image_url_https\":\"https:\\/\\/pbs.twimg.com\\/profile_images\\/378800000180344838\\/f8454420dde9f04520f90a012595cbb2_normal.png\",\"profile_link_color\":\"0084B4\",\"profile_sidebar_border_color\":\"C0DEED\",\"profile_sidebar_fill_color\":\"DDEEF6\",\"profile_text_color\":\"333333\",\"profile_use_background_image\":true,\"default_profile\":true,\"default_profile_image\":false,\"following\":null,\"follow_request_sent\":null,\"notifications\":null},\"geo\":null,\"coordinates\":null,\"place\":null,\"contributors\":null,\"retweet_count\":0,\"favorite_count\":0,\"entities\":{\"hashtags\":[],\"symbols\":[],\"urls\":[],\"user_mentions\":[]},\"favorited\":false,\"retweeted\":false,\"filter_level\":\"medium\",\"lang\":\"ja\"}"
"{\"created_at\":\"Mon Mar 24 23:27:22 +0000 2014\",\"id\":448239681671413760,\"id_str\":\"448239681671413760\",\"text\":\"Me estoy enamorando de Jorge dios mio, como canta !!\",\"source\":\"\\u003ca href=\\\"http:\\/\\/twitter.com\\/download\\/android\\\" rel=\\\"nofollow\\\"\\u003eTwitter for Android\\u003c\\/a\\u003e\",\"truncated\":false,\"in_reply_to_status_id\":null,\"in_reply_to_status_id_str\":null,\"in_reply_to_user_id\":null,\"in_reply_to_user_id_str\":null,\"in_reply_to_screen_name\":null,\"user\":{\"id\":2434080897,\"id_str\":\"2434080897\",\"name\":\"Jonna Rhodes\",\"screen_name\":\"jonnarhodesfe\",\"location\":\"\",\"url\":null,\"description\":null,\"protected\":false,\"followers_count\":0,\"friends_count\":0,\"listed_count\":0,\"created_at\":\"Mon Mar 24 20:34:38 +0000 2014\",\"favourites_count\":0,\"utc_offset\":null,\"time_zone\":null,\"geo_enabled\":false,\"verified\":false,\"statuses_count\":5,\"lang\":\"en\",\"contributors_enabled\":false,\"is_translator\":false,\"is_translation_enabled\":false,\"profile_background_color\":\"C0DEED\",\"profile_background_image_url\":\"http:\\/\\/abs.twimg.com\\/images\\/themes\\/theme1\\/bg.png\",\"profile_background_image_url_https\":\"https:\\/\\/abs.twimg.com\\/images\\/themes\\/theme1\\/bg.png\",\"profile_background_tile\":false,\"profile_image_url\":\"http:\\/\\/pbs.twimg.com\\/profile_images\\/448239136508768256\\/jBOJzvIU_normal.jpeg\",\"profile_image_url_https\":\"https:\\/\\/pbs.twimg.com\\/profile_images\\/448239136508768256\\/jBOJzvIU_normal.jpeg\",\"profile_link_color\":\"0084B4\",\"profile_sidebar_border_color\":\"C0DEED\",\"profile_sidebar_fill_color\":\"DDEEF6\",\"profile_text_color\":\"333333\",\"profile_use_background_image\":true,\"default_profile\":true,\"default_profile_image\":false,\"following\":null,\"follow_request_sent\":null,\"notifications\":null},\"geo\":null,\"coordinates\":null,\"place\":null,\"contributors\":null,\"retweet_count\":0,\"favorite_count\":0,\"entities\":{\"hashtags\":[],\"symbols\":[],\"urls\":[],\"user_mentions\":[]},\"favorited\":false,\"retweeted\":false,\"filter_level\":\"medium\",\"lang\":\"es\"}"
"{\"created_at\":\"Mon Mar 24 23:27:22 +0000 2014\",\"id\":448239681705345024,\"id_str\":\"448239681705345024\",\"text\":\"http:\\/\\/t.co\\/GO0jECoKbj\",\"source\":\"\\u003ca href=\\\"http:\\/\\/blackberry.com\\/twitter\\\" rel=\\\"nofollow\\\"\\u003eTwitter for BlackBerry\\u00ae\\u003c\\/a\\u003e\",\"truncated\":false,\"in_reply_to_status_id\":null,\"in_reply_to_status_id_str\":null,\"in_reply_to_user_id\":null,\"in_reply_to_user_id_str\":null,\"in_reply_to_screen_name\":null,\"user\":{\"id\":1924566834,\"id_str\":\"1924566834\",\"name\":\"\\u0645\\u0646\\u0648\\u0648\\u0647\",\"screen_name\":\"Flfol1412\",\"location\":\"\\u0623\\u0631\\u0636 \\u0627\\u0644\\u0644\\u0647 \\u0627\\u0644\\u0648\\u0627\\u0633\\u0639\\u0647 \",\"url\":null,\"description\":\"\\u0644\\u0627 \\u0628\\u0623\\u0633 \\u0627\\u0646 \\u062a\\u062e\\u0637\\u0626 \\u0648\\u062a\\u062a\\u0639\\u0644\\u0645 \\u0641\\u0627\\u0644\\u062d\\u064a\\u0627\\u0629 \\u0644\\u0645 \\u062a\\u0623\\u062a\\u064a \\u0645\\u0631\\u0641\\u0642\\u0629 \\u0628\\u0640\\u062f\\u0644\\u064a\\u0644 \\u0627\\u0633\\u062a\\u0639\\u0645\\u0627\\u0644\",\"protected\":false,\"followers_count\":40,\"friends_count\":114,\"listed_count\":0,\"created_at\":\"Tue Oct 01 20:53:25 +0000 2013\",\"favourites_count\":6,\"utc_offset\":null,\"time_zone\":null,\"geo_enabled\":false,\"verified\":false,\"statuses_count\":291,\"lang\":\"ar\",\"contributors_enabled\":false,\"is_translator\":false,\"is_translation_enabled\":false,\"profile_background_color\":\"C0DEED\",\"profile_background_image_url\":\"http:\\/\\/abs.twimg.com\\/images\\/themes\\/theme1\\/bg.png\",\"profile_background_image_url_https\":\"https:\\/\\/abs.twimg.com\\/images\\/themes\\/theme1\\/bg.png\",\"profile_background_tile\":false,\"profile_image_url\":\"http:\\/\\/pbs.twimg.com\\/profile_images\\/434144587209523200\\/_htXazBp_normal.jpeg\",\"profile_image_url_https\":\"https:\\/\\/pbs.twimg.com\\/profile_images\\/434144587209523200\\/_htXazBp_normal.jpeg\",\"profile_banner_url\":\"https:\\/\\/pbs.twimg.com\\/profile_banners\\/1924566834\\/1392343107\",\"profile_link_color\":\"0084B4\",\"profile_sidebar_border_color\":\"C0DEED\",\"profile_sidebar_fill_color\":\"DDEEF6\",\"profile_text_color\":\"333333\",\"profile_use_background_image\":true,\"default_profile\":true,\"default_profile_image\":false,\"following\":null,\"follow_request_sent\":null,\"notifications\":null},\"geo\":null,\"coordinates\":null,\"place\":null,\"contributors\":null,\"retweet_count\":0,\"favorite_count\":0,\"entities\":{\"hashtags\":[],\"symbols\":[],\"urls\":[],\"user_mentions\":[],\"media\":[{\"id\":436766661811900416,\"id_str\":\"436766661811900416\",\"indices\":[0,22],\"media_url\":\"http:\\/\\/pbs.twimg.com\\/media\\/Bg-09v8IEAAIkv7.jpg\",\"media_url_https\":\"https:\\/\\/pbs.twimg.com\\/media\\/Bg-09v8IEAAIkv7.jpg\",\"url\":\"http:\\/\\/t.co\\/GO0jECoKbj\",\"display_url\":\"pic.twitter.com\\/GO0jECoKbj\",\"expanded_url\":\"http:\\/\\/twitter.com\\/salem_mohd1\\/status\\/436766661920956416\\/photo\\/1\",\"type\":\"photo\",\"sizes\":{\"large\":{\"w\":340,\"h\":255,\"resize\":\"fit\"},\"thumb\":{\"w\":150,\"h\":150,\"resize\":\"crop\"},\"medium\":{\"w\":340,\"h\":255,\"resize\":\"fit\"},\"small\":{\"w\":340,\"h\":255,\"resize\":\"fit\"}},\"source_status_id\":436766661920956416,\"source_status_id_str\":\"436766661920956416\"}]},\"favorited\":false,\"retweeted\":false,\"possibly_sensitive\":false,\"filter_level\":\"medium\",\"lang\":\"und\"}"
"{\"created_at\":\"Mon Mar 24 23:27:22 +0000 2014\",\"id\":448239681680195584,\"id_str\":\"448239681680195584\",\"text\":\"RT @ff_uc4: \\u2b55\\u0644\\u0644\\u0645\\u062a\\u0648\\u0627\\u062c\\u062f\\u064a\\u0646 \\u0644\\u0632\\u064a\\u0627\\u062f\\u0629 \\u0645\\u062a\\u0627\\u0628\\u0639\\u064a\\u0646\\u0643 \\u0642\\u0645 \\u0628\\u0627\\u0644\\u0627\\u062a\\u064a \\u278a \\u0641\\u0648\\u0644\\u0648 \\u0645\\u064a \\u278b \\u0631\\u064a\\u062a\\u0648\\u064a\\u062a \\u0623\\u0634\\u062a\\u0631\\u0643 \\u0645\\u062c\\u0627\\u0646\\u0627\\u064b \\u0628\\u0627\\u0644\\u0631\\u064a\\u062a\\u0648\\u064a\\u062a \\u0627\\u0644\\u062a\\u0644\\u0642\\u0627\\u0626\\u064a http:\\/\\/t.co\\/aGxWFusCJr \\n 150\",\"source\":\"\\u003ca href=\\\"http:\\/\\/tweetadder.com\\\" rel=\\\"nofollow\\\"\\u003eTweetAdder v4\\u003c\\/a\\u003e\",\"truncated\":false,\"in_reply_to_status_id\":null,\"in_reply_to_status_id_str\":null,\"in_reply_to_user_id\":null,\"in_reply_to_user_id_str\":null,\"in_reply_to_screen_name\":null,\"user\":{\"id\":2308895094,\"id_str\":\"2308895094\",\"name\":\"\\u0623\\u062d\\u0645\\u062f \\u062d\\u0633\\u0646\",\"screen_name\":\"Ahmed_hassan909\",\"location\":\"\\u0645\\u0635\\u0631\",\"url\":null,\"description\":\"\\u0627\\u0644\\u062d\\u0644 \\u0627\\u0644\\u0648\\u062d\\u064a\\u062f \\u0644\\u0644\\u0645\\u0634\\u0627\\u0643\\u0644 \\u0627\\u0644\\u0646\\u0641\\u0633\\u064a\\u0629 \\u0647\\u0648: \\u0644\\u0627 \\u062a\\u0643\\u0646 \\u0639\\u0627\\u0637\\u0644\\u0627 \\u0648\\u0644\\u0627 \\u062a\\u0643\\u0646 \\u0648\\u062d\\u064a\\u062f\\u0627\\u064b.\",\"protected\":false,\"followers_count\":3527,\"friends_count\":1185,\"listed_count\":1,\"created_at\":\"Fri Jan 24 20:05:19 +0000 2014\",\"favourites_count\":0,\"utc_offset\":7200,\"time_zone\":\"Athens\",\"geo_enabled\":false,\"verified\":false,\"statuses_count\":32397,\"lang\":\"en\",\"contributors_enabled\":false,\"is_translator\":false,\"is_translation_enabled\":false,\"profile_background_color\":\"9AE4E8\",\"profile_background_image_url\":\"http:\\/\\/abs.twimg.com\\/images\\/themes\\/theme16\\/bg.gif\",\"profile_background_image_url_https\":\"https:\\/\\/abs.twimg.com\\/images\\/themes\\/theme16\\/bg.gif\",\"profile_background_tile\":false,\"profile_image_url\":\"http:\\/\\/pbs.twimg.com\\/profile_images\\/427134256452628480\\/kXbY6WaC_normal.jpeg\",\"profile_image_url_https\":\"https:\\/\\/pbs.twimg.com\\/profile_images\\/427134256452628480\\/kXbY6WaC_normal.jpeg\",\"profile_banner_url\":\"https:\\/\\/pbs.twimg.com\\/profile_banners\\/2308895094\\/1390671733\",\"profile_link_color\":\"0084B4\",\"profile_sidebar_border_color\":\"BDDCAD\",\"profile_sidebar_fill_color\":\"DDFFCC\",\"profile_text_color\":\"333333\",\"profile_use_background_image\":true,\"default_profile\":false,\"default_profile_image\":false,\"following\":null,\"follow_request_sent\":null,\"notifications\":null},\"geo\":null,\"coordinates\":null,\"place\":null,\"contributors\":null,\"retweeted_status\":{\"created_at\":\"Mon Mar 24 23:26:32 +0000 2014\",\"id\":448239472417984512,\"id_str\":\"448239472417984512\",\"text\":\"\\u2b55\\u0644\\u0644\\u0645\\u062a\\u0648\\u0627\\u062c\\u062f\\u064a\\u0646 \\u0644\\u0632\\u064a\\u0627\\u062f\\u0629 \\u0645\\u062a\\u0627\\u0628\\u0639\\u064a\\u0646\\u0643 \\u0642\\u0645 \\u0628\\u0627\\u0644\\u0627\\u062a\\u064a \\u278a \\u0641\\u0648\\u0644\\u0648 \\u0645\\u064a \\u278b \\u0631\\u064a\\u062a\\u0648\\u064a\\u062a \\u0623\\u0634\\u062a\\u0631\\u0643 \\u0645\\u062c\\u0627\\u0646\\u0627\\u064b \\u0628\\u0627\\u0644\\u0631\\u064a\\u062a\\u0648\\u064a\\u062a \\u0627\\u0644\\u062a\\u0644\\u0642\\u0627\\u0626\\u064a http:\\/\\/t.co\\/aGxWFusCJr \\n 150\",\"source\":\"\\u003ca href=\\\"http:\\/\\/faisal-almutairi.com\\/tw2\\/\\\" rel=\\\"nofollow\\\"\\u003e\\u0627\\u0644\\u0641\\u064a\\u0635\\u0644 2 \\u0644\\u0644\\u062a\\u063a\\u0631\\u064a\\u062f \\u0627\\u0644\\u0622\\u0644\\u064a\\u003c\\/a\\u003e\",\"truncated\":false,\"in_reply_to_status_id\":null,\"in_reply_to_status_id_str\":null,\"in_reply_to_user_id\":null,\"in_reply_to_user_id_str\":null,\"in_reply_to_screen_name\":null,\"user\":{\"id\":1391851142,\"id_str\":\"1391851142\",\"name\":\"\\u0642\\u0631\\u0648\\u0628 \\u0641\\u064a\\u0635\\u0644\",\"screen_name\":\"ff_uc4\",\"location\":\"\",\"url\":null,\"description\":\"\\u0645\\u062c\\u0645\\u0648\\u0639\\u0629 \\u0627\\u0644\\u0641\\u064a\\u0635\\u0644\\n\\n@f_grooup\",\"protected\":false,\"followers_count\":226589,\"friends_count\":149851,\"listed_count\":93,\"created_at\":\"Tue Apr 30 11:34:54 +0000 2013\",\"favourites_count\":93,\"utc_offset\":10800,\"time_zone\":\"Baghdad\",\"geo_enabled\":true,\"verified\":false,\"statuses_count\":16101,\"lang\":\"ar\",\"contributors_enabled\":false,\"is_translator\":false,\"is_translation_enabled\":false,\"profile_background_color\":\"C0DEED\",\"profile_background_image_url\":\"http:\\/\\/abs.twimg.com\\/images\\/themes\\/theme1\\/bg.png\",\"profile_background_image_url_https\":\"https:\\/\\/abs.twimg.com\\/images\\/themes\\/theme1\\/bg.png\",\"profile_background_tile\":false,\"profile_image_url\":\"http:\\/\\/pbs.twimg.com\\/profile_images\\/447553003709808640\\/jbCzrLKb_normal.jpeg\",\"profile_image_url_https\":\"https:\\/\\/pbs.twimg.com\\/profile_images\\/447553003709808640\\/jbCzrLKb_normal.jpeg\",\"profile_banner_url\":\"https:\\/\\/pbs.twimg.com\\/profile_banners\\/1391851142\\/1395539916\",\"profile_link_color\":\"0084B4\",\"profile_sidebar_border_color\":\"C0DEED\",\"profile_sidebar_fill_color\":\"DDEEF6\",\"profile_text_color\":\"333333\",\"profile_use_background_image\":true,\"default_profile\":true,\"default_profile_image\":false,\"following\":null,\"follow_request_sent\":null,\"notifications\":null},\"geo\":null,\"coordinates\":null,\"place\":null,\"contributors\":null,\"retweet_count\":177,\"favorite_count\":0,\"entities\":{\"hashtags\":[],\"symbols\":[],\"urls\":[{\"url\":\"http:\\/\\/t.co\\/aGxWFusCJr\",\"expanded_url\":\"http:\\/\\/faisal-almutairi.com\\/rt6\",\"display_url\":\"faisal-almutairi.com\\/rt6\",\"indices\":[89,111]}],\"user_mentions\":[]},\"favorited\":false,\"retweeted\":false,\"possibly_sensitive\":false,\"lang\":\"ar\"},\"retweet_count\":0,\"favorite_count\":0,\"entities\":{\"hashtags\":[],\"symbols\":[],\"urls\":[{\"url\":\"http:\\/\\/t.co\\/aGxWFusCJr\",\"expanded_url\":\"http:\\/\\/faisal-almutairi.com\\/rt6\",\"display_url\":\"faisal-almutairi.com\\/rt6\",\"indices\":[101,123]}],\"user_mentions\":[{\"screen_name\":\"ff_uc4\",\"name\":\"\\u0642\\u0631\\u0648\\u0628 \\u0641\\u064a\\u0635\\u0644\",\"id\":1391851142,\"id_str\":\"1391851142\",\"indices\":[3,10]}]},\"favorited\":false,\"retweeted\":false,\"possibly_sensitive\":false,\"filter_level\":\"medium\",\"lang\":\"ar\"}"
"{\"created_at\":\"Mon Mar 24 23:27:22 +0000 2014\",\"id\":448239681701183488,\"id_str\":\"448239681701183488\",\"text\":\"This headache &amp; stomach cramps need to go away NOW...#dying\",\"source\":\"\\u003ca href=\\\"http:\\/\\/twitter.com\\/download\\/iphone\\\" rel=\\\"nofollow\\\"\\u003eTwitter for iPhone\\u003c\\/a\\u003e\",\"truncated\":false,\"in_reply_to_status_id\":null,\"in_reply_to_status_id_str\":null,\"in_reply_to_user_id\":null,\"in_reply_to_user_id_str\":null,\"in_reply_to_screen_name\":null,\"user\":{\"id\":412331626,\"id_str\":\"412331626\",\"name\":\"Dari Usko Paulus\",\"screen_name\":\"daripaulus\",\"location\":\"PA but wanna live in TX\",\"url\":null,\"description\":null,\"protected\":false,\"followers_count\":62,\"friends_count\":373,\"listed_count\":0,\"created_at\":\"Mon Nov 14 15:09:34 +0000 2011\",\"favourites_count\":263,\"utc_offset\":-10800,\"time_zone\":\"Atlantic Time (Canada)\",\"geo_enabled\":true,\"verified\":false,\"statuses_count\":1236,\"lang\":\"en\",\"contributors_enabled\":false,\"is_translator\":false,\"is_translation_enabled\":false,\"profile_background_color\":\"C0DEED\",\"profile_background_image_url\":\"http:\\/\\/abs.twimg.com\\/images\\/themes\\/theme1\\/bg.png\",\"profile_background_image_url_https\":\"https:\\/\\/abs.twimg.com\\/images\\/themes\\/theme1\\/bg.png\",\"profile_background_tile\":false,\"profile_image_url\":\"http:\\/\\/pbs.twimg.com\\/profile_images\\/378800000471473410\\/feb927be5bbe3b4e2c89faeff8242818_normal.jpeg\",\"profile_image_url_https\":\"https:\\/\\/pbs.twimg.com\\/profile_images\\/378800000471473410\\/feb927be5bbe3b4e2c89faeff8242818_normal.jpeg\",\"profile_banner_url\":\"https:\\/\\/pbs.twimg.com\\/profile_banners\\/412331626\\/1394589500\",\"profile_link_color\":\"0084B4\",\"profile_sidebar_border_color\":\"C0DEED\",\"profile_sidebar_fill_color\":\"DDEEF6\",\"profile_text_color\":\"333333\",\"profile_use_background_image\":true,\"default_profile\":true,\"default_profile_image\":false,\"following\":null,\"follow_request_sent\":null,\"notifications\":null},\"geo\":{\"type\":\"Point\",\"coordinates\":[40.17114155,-77.09453877]},\"coordinates\":{\"type\":\"Point\",\"coordinates\":[-77.09453877,40.17114155]},\"place\":{\"id\":\"dd9c503d6c35364b\",\"url\":\"https:\\/\\/api.twitter.com\\/1.1\\/geo\\/id\\/dd9c503d6c35364b.json\",\"place_type\":\"admin\",\"name\":\"Pennsylvania\",\"full_name\":\"Pennsylvania, USA\",\"country_code\":\"US\",\"country\":\"United States\",\"contained_within\":[],\"bounding_box\":{\"type\":\"Polygon\",\"coordinates\":[[[-80.519851,39.719801],[-80.519851,42.516072],[-74.689517,42.516072],[-74.689517,39.719801]]]},\"attributes\":{}},\"contributors\":null,\"retweet_count\":0,\"favorite_count\":0,\"entities\":{\"hashtags\":[{\"text\":\"dying\",\"indices\":[57,63]}],\"symbols\":[],\"urls\":[],\"user_mentions\":[]},\"favorited\":false,\"retweeted\":false,\"filter_level\":\"medium\",\"lang\":\"en\"}"
"{\"created_at\":\"Mon Mar 24 23:27:22 +0000 2014\",\"id\":448239681705349120,\"id_str\":\"448239681705349120\",\"text\":\"\\u611b\\u77e5\\u3067\\u30cf\\u30a6\\u30b9\\u30a6\\u30a8\\u30c7\\u30a3\\u30f3\\u30b0\\u3092\\u3059\\u308b\\u306a\\u3089\\u3053\\u3053\\u304c\\u304a\\u3059\\u3059\\u3081\\uff01 http:\\/\\/t.co\\/Fn99g8R6hH \\u611b\\u77e5\\u306e\\u7d50\\u5a5a\\u5f0f\\u306a\\u3089\\u3053\\u3061\\u3089\\u3082\\u30c1\\u30a7\\u30c3\\u30af\\u21d2 http:\\/\\/t.co\\/7onH9qHZaU\",\"source\":\"\\u003ca href=\\\"https:\\/\\/twitter.com\\/fukuda12381\\\" rel=\\\"nofollow\\\"\\u003efukuda12381\\u003c\\/a\\u003e\",\"truncated\":false,\"in_reply_to_status_id\":null,\"in_reply_to_status_id_str\":null,\"in_reply_to_user_id\":null,\"in_reply_to_user_id_str\":null,\"in_reply_to_screen_name\":null,\"user\":{\"id\":2188396848,\"id_str\":\"2188396848\",\"name\":\"\\u611b\\u77e5\\u30fb\\u9759\\u5ca1\\u30a6\\u30a8\\u30c7\\u30a3\\u30f3\\u30b0\\u30b9\\u30bf\\u30a4\\u30eb\",\"screen_name\":\"sty_aicishizuok\",\"location\":\"\",\"url\":null,\"description\":\"\\u611b\\u77e5\\u30fb\\u9759\\u5ca1\\u306e\\u3044\\u308d\\u3044\\u308d\\u306a\\u30a6\\u30a8\\u30c7\\u30a3\\u30f3\\u30b0\\u30b9\\u30bf\\u30a4\\u30eb\\u3092\\u7d39\\u4ecb\\u3092\\u7d39\\u4ecb\\u2606\\u3000\\u30ab\\u30c3\\u30d7\\u30eb\\u3055\\u3093\\u3001\\u305d\\u308c\\u305e\\u308c\\u306b\\u3042\\u3063\\u305f\\u7d50\\u5a5a\\u5f0f\\u3092\\u898b\\u3064\\u3051\\u308b\\u304a\\u624b\\u4f1d\\u3044\\u304c\\u3067\\u304d\\u308c\\u3070\\u3044\\u3044\\u306a\\u3002 \\u76f8\\u4e92\\u30d5\\u30a9\\u30ed\\u30fc100%\",\"protected\":false,\"followers_count\":202,\"friends_count\":153,\"listed_count\":3,\"created_at\":\"Mon Nov 11 13:35:30 +0000 2013\",\"favourites_count\":0,\"utc_offset\":32400,\"time_zone\":\"Irkutsk\",\"geo_enabled\":false,\"verified\":false,\"statuses_count\":36808,\"lang\":\"ja\",\"contributors_enabled\":false,\"is_translator\":false,\"is_translation_enabled\":false,\"profile_background_color\":\"C0DEED\",\"profile_background_image_url\":\"http:\\/\\/abs.twimg.com\\/images\\/themes\\/theme1\\/bg.png\",\"profile_background_image_url_https\":\"https:\\/\\/abs.twimg.com\\/images\\/themes\\/theme1\\/bg.png\",\"profile_background_tile\":false,\"profile_image_url\":\"http:\\/\\/pbs.twimg.com\\/profile_images\\/378800000760877045\\/03637da7f8815f8041a0befde506d3e3_normal.jpeg\",\"profile_image_url_https\":\"https:\\/\\/pbs.twimg.com\\/profile_images\\/378800000760877045\\/03637da7f8815f8041a0befde506d3e3_normal.jpeg\",\"profile_link_color\":\"0084B4\",\"profile_sidebar_border_color\":\"C0DEED\",\"profile_sidebar_fill_color\":\"DDEEF6\",\"profile_text_color\":\"333333\",\"profile_use_background_image\":true,\"default_profile\":true,\"default_profile_image\":false,\"following\":null,\"follow_request_sent\":null,\"notifications\":null},\"geo\":null,\"coordinates\":null,\"place\":null,\"contributors\":null,\"retweet_count\":0,\"favorite_count\":0,\"entities\":{\"hashtags\":[],\"symbols\":[],\"urls\":[{\"url\":\"http:\\/\\/t.co\\/Fn99g8R6hH\",\"expanded_url\":\"http:\\/\\/wedding.gnavi.co.jp\\/style\\/guesthouse\\/aichi\\/\",\"display_url\":\"wedding.gnavi.co.jp\\/style\\/guesthou\\u2026\",\"indices\":[26,48]},{\"url\":\"http:\\/\\/t.co\\/7onH9qHZaU\",\"expanded_url\":\"http:\\/\\/goo.gl\\/hhE1qV\",\"display_url\":\"goo.gl\\/hhE1qV\",\"indices\":[67,89]}],\"user_mentions\":[]},\"favorited\":false,\"retweeted\":false,\"possibly_sensitive\":false,\"filter_level\":\"medium\",\"lang\":\"ja\"}"
"{\"created_at\":\"Mon Mar 24 23:27:22 +0000 2014\",\"id\":448239681667203072,\"id_str\":\"448239681667203072\",\"text\":\"\\\"@TeamAthleteLife: Train \\u2014 like an athlete. Eat \\u2014 like a nutritionist. Sleep \\u2014 like a baby. WIN \\u2014 like a champion.\\\"\",\"source\":\"\\u003ca href=\\\"http:\\/\\/blackberry.com\\/twitter\\\" rel=\\\"nofollow\\\"\\u003eTwitter for BlackBerry\\u00ae\\u003c\\/a\\u003e\",\"truncated\":false,\"in_reply_to_status_id\":null,\"in_reply_to_status_id_str\":null,\"in_reply_to_user_id\":null,\"in_reply_to_user_id_str\":null,\"in_reply_to_screen_name\":null,\"user\":{\"id\":511836754,\"id_str\":\"511836754\",\"name\":\"Jenifer \",\"screen_name\":\"JeniferOhandi8\",\"location\":\"Indonesia\",\"url\":null,\"description\":\"PANDAWA 5 |#5 |Achtentwintig'15\",\"protected\":false,\"followers_count\":154,\"friends_count\":107,\"listed_count\":0,\"created_at\":\"Fri Mar 02 12:14:20 +0000 2012\",\"favourites_count\":271,\"utc_offset\":-25200,\"time_zone\":\"Pacific Time (US & Canada)\",\"geo_enabled\":true,\"verified\":false,\"statuses_count\":6569,\"lang\":\"id\",\"contributors_enabled\":false,\"is_translator\":false,\"is_translation_enabled\":false,\"profile_background_color\":\"C0DEED\",\"profile_background_image_url\":\"http:\\/\\/pbs.twimg.com\\/profile_background_images\\/805811460\\/ad85b54d49fd70536ff5c8a2411c38f2.jpeg\",\"profile_background_image_url_https\":\"https:\\/\\/pbs.twimg.com\\/profile_background_images\\/805811460\\/ad85b54d49fd70536ff5c8a2411c38f2.jpeg\",\"profile_background_tile\":true,\"profile_image_url\":\"http:\\/\\/pbs.twimg.com\\/profile_images\\/415794640650903552\\/RqAmsHhk_normal.jpeg\",\"profile_image_url_https\":\"https:\\/\\/pbs.twimg.com\\/profile_images\\/415794640650903552\\/RqAmsHhk_normal.jpeg\",\"profile_banner_url\":\"https:\\/\\/pbs.twimg.com\\/profile_banners\\/511836754\\/1392097559\",\"profile_link_color\":\"0084B4\",\"profile_sidebar_border_color\":\"FFFFFF\",\"profile_sidebar_fill_color\":\"DDEEF6\",\"profile_text_color\":\"333333\",\"profile_use_background_image\":true,\"default_profile\":false,\"default_profile_image\":false,\"following\":null,\"follow_request_sent\":null,\"notifications\":null},\"geo\":null,\"coordinates\":null,\"place\":null,\"contributors\":null,\"retweet_count\":0,\"favorite_count\":0,\"entities\":{\"hashtags\":[],\"symbols\":[],\"urls\":[],\"user_mentions\":[{\"screen_name\":\"TeamAthleteLife\",\"name\":\"Team Athlete Life\",\"id\":592397412,\"id_str\":\"592397412\",\"indices\":[1,17]}]},\"favorited\":false,\"retweeted\":false,\"filter_level\":\"medium\",\"lang\":\"en\"}"
"{\"created_at\":\"Mon Mar 24 23:27:22 +0000 2014\",\"id\":448239681671405568,\"id_str\":\"448239681671405568\",\"text\":\"RT @mook_olives: \\u0e1a\\u0e32\\u0e07\\u0e17\\u0e35\\u0e01\\u0e32\\u0e23\\u0e1a\\u0e2d\\u0e01\\u0e27\\u0e48\\u0e32 #MH370 \\u0e15\\u0e01\\u0e43\\u0e19\\u0e21\\u0e2b\\u0e32\\u0e2a\\u0e21\\u0e38\\u0e17\\u0e23\\u0e2d\\u0e34\\u0e19\\u0e40\\u0e14\\u0e35\\u0e22 \\u0e2d\\u0e32\\u0e08\\u0e08\\u0e30\\u0e40\\u0e1b\\u0e47\\u0e19\\u0e02\\u0e49\\u0e2d\\u0e2d\\u0e49\\u0e32\\u0e07\\u0e07\\u0e48\\u0e32\\u0e22\\u0e46\\u0e17\\u0e35\\u0e48\\u0e08\\u0e30\\u0e1a\\u0e2d\\u0e01\\u0e27\\u0e48\\u0e32 \\u0e2b\\u0e32\\u0e0b\\u0e32\\u0e01\\u0e40\\u0e04\\u0e23\\u0e37\\u0e48\\u0e2d\\u0e07\\u0e1a\\u0e34\\u0e19\\u0e44\\u0e21\\u0e48\\u0e40\\u0e08\\u0e2d\\u0e40\\u0e1e\\u0e23\\u0e32\\u0e30\\u0e21\\u0e2b\\u0e32\\u0e2a\\u0e21\\u0e38\\u0e17\\u0e23\\u0e2d\\u0e34\\u0e22\\u0e40\\u0e14\\u0e35\\u0e22\\u0e25\\u0e36\\u0e01&amp;\\u0e01\\u2026\",\"source\":\"\\u003ca href=\\\"http:\\/\\/twitter.com\\/download\\/iphone\\\" rel=\\\"nofollow\\\"\\u003eTwitter for iPhone\\u003c\\/a\\u003e\",\"truncated\":false,\"in_reply_to_status_id\":null,\"in_reply_to_status_id_str\":null,\"in_reply_to_user_id\":null,\"in_reply_to_user_id_str\":null,\"in_reply_to_screen_name\":null,\"user\":{\"id\":459126291,\"id_str\":\"459126291\",\"name\":\"\\u0e42\\u0e1a\\u0e19\\u0e31\\u0e2a\\u0e0a\\u0e34\",\"screen_name\":\"BZsuno\",\"location\":\"\",\"url\":null,\"description\":\"\\u0e15\\u0e34\\u0e48\\u0e07\\u0e17\\u0e35\\u0e48\\u0e40\\u0e08\\u0e2d\\u0e40\\u0e21\\u0e19\\u0e04\\u0e23\\u0e31\\u0e49\\u0e07\\u0e41\\u0e23\\u0e01\\u0e41\\u0e25\\u0e49\\u0e27\\u0e40\\u0e1b\\u0e47\\u0e19\\u0e25\\u0e21 \\u0e2a\\u0e27\\u0e31\\u0e2a\\u0e14\\u0e35\\u0e04\\u0e48\\u0e30\\n\\u007bFC\\u2665TON AF8 @t9onaf8 \\u007d\",\"protected\":false,\"followers_count\":325,\"friends_count\":202,\"listed_count\":0,\"created_at\":\"Mon Jan 09 09:30:43 +0000 2012\",\"favourites_count\":1041,\"utc_offset\":null,\"time_zone\":null,\"geo_enabled\":true,\"verified\":false,\"statuses_count\":26459,\"lang\":\"en\",\"contributors_enabled\":false,\"is_translator\":false,\"is_translation_enabled\":false,\"profile_background_color\":\"131516\",\"profile_background_image_url\":\"http:\\/\\/pbs.twimg.com\\/profile_background_images\\/752308589\\/01c364abfcbd48f214b7507fa2e26df2.jpeg\",\"profile_background_image_url_https\":\"https:\\/\\/pbs.twimg.com\\/profile_background_images\\/752308589\\/01c364abfcbd48f214b7507fa2e26df2.jpeg\",\"profile_background_tile\":true,\"profile_image_url\":\"http:\\/\\/pbs.twimg.com\\/profile_images\\/437574084210094082\\/A-4971xn_normal.jpeg\",\"profile_image_url_https\":\"https:\\/\\/pbs.twimg.com\\/profile_images\\/437574084210094082\\/A-4971xn_normal.jpeg\",\"profile_banner_url\":\"https:\\/\\/pbs.twimg.com\\/profile_banners\\/459126291\\/1395462362\",\"profile_link_color\":\"4F94CD\",\"profile_sidebar_border_color\":\"FFFFFF\",\"profile_sidebar_fill_color\":\"EFEFEF\",\"profile_text_color\":\"333333\",\"profile_use_background_image\":false,\"default_profile\":false,\"default_profile_image\":false,\"following\":null,\"follow_request_sent\":null,\"notifications\":null},\"geo\":null,\"coordinates\":null,\"place\":null,\"contributors\":null,\"retweeted_status\":{\"created_at\":\"Mon Mar 24 16:40:11 +0000 2014\",\"id\":448137209409847296,\"id_str\":\"448137209409847296\",\"text\":\"\\u0e1a\\u0e32\\u0e07\\u0e17\\u0e35\\u0e01\\u0e32\\u0e23\\u0e1a\\u0e2d\\u0e01\\u0e27\\u0e48\\u0e32 #MH370 \\u0e15\\u0e01\\u0e43\\u0e19\\u0e21\\u0e2b\\u0e32\\u0e2a\\u0e21\\u0e38\\u0e17\\u0e23\\u0e2d\\u0e34\\u0e19\\u0e40\\u0e14\\u0e35\\u0e22 \\u0e2d\\u0e32\\u0e08\\u0e08\\u0e30\\u0e40\\u0e1b\\u0e47\\u0e19\\u0e02\\u0e49\\u0e2d\\u0e2d\\u0e49\\u0e32\\u0e07\\u0e07\\u0e48\\u0e32\\u0e22\\u0e46\\u0e17\\u0e35\\u0e48\\u0e08\\u0e30\\u0e1a\\u0e2d\\u0e01\\u0e27\\u0e48\\u0e32 \\u0e2b\\u0e32\\u0e0b\\u0e32\\u0e01\\u0e40\\u0e04\\u0e23\\u0e37\\u0e48\\u0e2d\\u0e07\\u0e1a\\u0e34\\u0e19\\u0e44\\u0e21\\u0e48\\u0e40\\u0e08\\u0e2d\\u0e40\\u0e1e\\u0e23\\u0e32\\u0e30\\u0e21\\u0e2b\\u0e32\\u0e2a\\u0e21\\u0e38\\u0e17\\u0e23\\u0e2d\\u0e34\\u0e22\\u0e40\\u0e14\\u0e35\\u0e22\\u0e25\\u0e36\\u0e01&amp;\\u0e01\\u0e27\\u0e49\\u0e32\\u0e07\\u0e21\\u0e32\\u0e01  #\\u0e23\\u0e36\\u0e40\\u0e1b\\u0e25\\u0e48\\u0e32\\u0e19\\u0e30\",\"source\":\"\\u003ca href=\\\"http:\\/\\/www.echofon.com\\/\\\" rel=\\\"nofollow\\\"\\u003eEchofon\\u003c\\/a\\u003e\",\"truncated\":false,\"in_reply_to_status_id\":null,\"in_reply_to_status_id_str\":null,\"in_reply_to_user_id\":null,\"in_reply_to_user_id_str\":null,\"in_reply_to_screen_name\":null,\"user\":{\"id\":75762067,\"id_str\":\"75762067\",\"name\":\"Krittaphorn M.\",\"screen_name\":\"mook_olives\",\"location\":\"GMM GRAMMY | BKK\",\"url\":\"http:\\/\\/www.facebook.com\\/MOOKOlivesFanclub\",\"description\":\"Instagram : mook_olives \\nOlives  *1232020\\n@mooktukk_fans #mooktukkfans \\u2661 bodindecha40\\/industrial engineering kmitl55 \\u2661\",\"protected\":false,\"followers_count\":59013,\"friends_count\":135,\"listed_count\":84,\"created_at\":\"Sun Sep 20 10:36:25 +0000 2009\",\"favourites_count\":951,\"utc_offset\":25200,\"time_zone\":\"Bangkok\",\"geo_enabled\":false,\"verified\":false,\"statuses_count\":15779,\"lang\":\"en\",\"contributors_enabled\":false,\"is_translator\":false,\"is_translation_enabled\":false,\"profile_background_color\":\"7F598F\",\"profile_background_image_url\":\"http:\\/\\/pbs.twimg.com\\/profile_background_images\\/96221278\\/Texture_16_by_KeyMoon.jpg\",\"profile_background_image_url_https\":\"https:\\/\\/pbs.twimg.com\\/profile_background_images\\/96221278\\/Texture_16_by_KeyMoon.jpg\",\"profile_background_tile\":true,\"profile_image_url\":\"http:\\/\\/pbs.twimg.com\\/profile_images\\/2504155988\\/mook_olives_normal.jpg\",\"profile_image_url_https\":\"https:\\/\\/pbs.twimg.com\\/profile_images\\/2504155988\\/mook_olives_normal.jpg\",\"profile_link_color\":\"5A3169\",\"profile_sidebar_border_color\":\"3D00A6\",\"profile_sidebar_fill_color\":\"EBB9ED\",\"profile_text_color\":\"6D2975\",\"profile_use_background_image\":true,\"default_profile\":false,\"default_profile_image\":false,\"following\":null,\"follow_request_sent\":null,\"notifications\":null},\"geo\":null,\"coordinates\":null,\"place\":null,\"contributors\":null,\"retweet_count\":361,\"favorite_count\":12,\"entities\":{\"hashtags\":[{\"text\":\"MH370\",\"indices\":[15,21]},{\"text\":\"\\u0e23\\u0e36\\u0e40\\u0e1b\\u0e25\\u0e48\\u0e32\\u0e19\\u0e30\",\"indices\":[134,144]}],\"symbols\":[],\"urls\":[],\"user_mentions\":[]},\"favorited\":false,\"retweeted\":false,\"lang\":\"th\"},\"retweet_count\":0,\"favorite_count\":0,\"entities\":{\"hashtags\":[{\"text\":\"MH370\",\"indices\":[32,38]},{\"text\":\"\\u0e23\\u0e36\\u0e40\\u0e1b\\u0e25\\u0e48\\u0e32\\u0e19\\u0e30\",\"indices\":[142,143]}],\"symbols\":[],\"urls\":[],\"user_mentions\":[{\"screen_name\":\"mook_olives\",\"name\":\"Krittaphorn M.\",\"id\":75762067,\"id_str\":\"75762067\",\"indices\":[3,15]}]},\"favorited\":false,\"retweeted\":false,\"filter_level\":\"medium\",\"lang\":\"th\"}"
"{\"created_at\":\"Mon Mar 24 23:27:22 +0000 2014\",\"id\":448239681683988480,\"id_str\":\"448239681683988480\",\"text\":\"@SPMRYS_tenshi \\u304a\\u306f\\u3088\\u3046SPMR\\uff06YS_\\u3067\\u3063\\u3066\\u3044\\u3046\\u3002\\u8abf\\u5b50\\u306f\\u3069\\u3046\\u3060\\u3044\\uff1f\\u4eca\\u65e5\\u3082\\u4e00\\u65e5\\u9811\\u5f35\\u308a\\u306a\\u3055\\u3044\\u306d\\u3002\",\"source\":\"\\u003ca href=\\\"https:\\/\\/twitter.com\\/83k_k75_bot\\\" rel=\\\"nofollow\\\"\\u003e\\u5b88\\u77e2\\u795e\\u793e\\u672c\\u6bbf\\u3000\\u003c\\/a\\u003e\",\"truncated\":false,\"in_reply_to_status_id\":448239537194418176,\"in_reply_to_status_id_str\":\"448239537194418176\",\"in_reply_to_user_id\":621086982,\"in_reply_to_user_id_str\":\"621086982\",\"in_reply_to_screen_name\":\"SPMRYS_tenshi\",\"user\":{\"id\":1474897460,\"id_str\":\"1474897460\",\"name\":\"\\u516b\\u5742\\u795e\\u5948\\u5b50\",\"screen_name\":\"83k_k75_bot\",\"location\":\"\\u5b88\\u77e2\\u795e\\u793e\\u672c\\u6bbf\",\"url\":\"http:\\/\\/twpf.jp\\/83k_k75_bot\",\"description\":\"\\u5b88\\u77e2\\u795e\\u793e\\u306e\\u4e00\\u67f1\\u3001\\u98a8\\u795e\\u516b\\u5742\\u795e\\u5948\\u5b50\\u306e\\u975e\\u516c\\u5f0fbot\\u3060\\u3002\\u307e\\u3060\\u307e\\u3060\\u8db3\\u308a\\u306a\\u3044\\u6240\\u3082\\u3042\\u308b\\u3060\\u308d\\u3046\\u3051\\u3069\\u3088\\u308d\\u3057\\u304f\\u983c\\u3080\\u308f\\u306d\\u3002\\u4f55\\u304b\\u3042\\u3063\\u305f\\u3089\\u3046\\u3061\\u306e(@hankana_TKK9015)\\u306b\\u8a00\\u3063\\u3066\\u304f\\u308c\\u308b\\u3068\\u52a9\\u304b\\u308b\\u3088\\u3002\\u8a73\\u3057\\u304f\\u306fURL\\u3092\\u53c2\\u7167\\u3057\\u3066\\u304a\\u304f\\u308c\\u3002\\u5225\\u308c\\u306e\\u6642\\u306f\\u30d6\\u30ed\\u30c3\\u30af\\u3067\\u983c\\u3080\\u305e\\u3002\",\"protected\":false,\"followers_count\":309,\"friends_count\":291,\"listed_count\":15,\"created_at\":\"Sat Jun 01 14:47:54 +0000 2013\",\"favourites_count\":31,\"utc_offset\":32400,\"time_zone\":\"Irkutsk\",\"geo_enabled\":false,\"verified\":false,\"statuses_count\":32447,\"lang\":\"ja\",\"contributors_enabled\":false,\"is_translator\":false,\"is_translation_enabled\":false,\"profile_background_color\":\"C0DEED\",\"profile_background_image_url\":\"http:\\/\\/abs.twimg.com\\/images\\/themes\\/theme1\\/bg.png\",\"profile_background_image_url_https\":\"https:\\/\\/abs.twimg.com\\/images\\/themes\\/theme1\\/bg.png\",\"profile_background_tile\":false,\"profile_image_url\":\"http:\\/\\/pbs.twimg.com\\/profile_images\\/378800000697864420\\/f59b0686c1b4f995f89fa430e7a1bc3d_normal.jpeg\",\"profile_image_url_https\":\"https:\\/\\/pbs.twimg.com\\/profile_images\\/378800000697864420\\/f59b0686c1b4f995f89fa430e7a1bc3d_normal.jpeg\",\"profile_banner_url\":\"https:\\/\\/pbs.twimg.com\\/profile_banners\\/1474897460\\/1370242114\",\"profile_link_color\":\"0084B4\",\"profile_sidebar_border_color\":\"C0DEED\",\"profile_sidebar_fill_color\":\"DDEEF6\",\"profile_text_color\":\"333333\",\"profile_use_background_image\":true,\"default_profile\":true,\"default_profile_image\":false,\"following\":null,\"follow_request_sent\":null,\"notifications\":null},\"geo\":null,\"coordinates\":null,\"place\":null,\"contributors\":null,\"retweet_count\":0,\"favorite_count\":0,\"entities\":{\"hashtags\":[],\"symbols\":[],\"urls\":[],\"user_mentions\":[{\"screen_name\":\"SPMRYS_tenshi\",\"name\":\"SPMR\\uff06YS_\\u3067\\u3063\\u3066\\u3044\\u3046\",\"id\":621086982,\"id_str\":\"621086982\",\"indices\":[0,14]}]},\"favorited\":false,\"retweeted\":false,\"filter_level\":\"medium\",\"lang\":\"ja\"}"
"{\"created_at\":\"Mon Mar 24 23:27:22 +0000 2014\",\"id\":448239681688195072,\"id_str\":\"448239681688195072\",\"text\":\"\\u3057\\u306a\\u3055\\u3093\\u304cRT\\u3057\\u3066\\u304f\\u308c\\u308b\\u3068\\u4fe1\\u3058\\u3088\\u3046w\",\"source\":\"\\u003ca href=\\\"http:\\/\\/twitter.com\\/download\\/android\\\" rel=\\\"nofollow\\\"\\u003eTwitter for Android\\u003c\\/a\\u003e\",\"truncated\":false,\"in_reply_to_status_id\":null,\"in_reply_to_status_id_str\":null,\"in_reply_to_user_id\":null,\"in_reply_to_user_id_str\":null,\"in_reply_to_screen_name\":null,\"user\":{\"id\":2300467580,\"id_str\":\"2300467580\",\"name\":\"\\u30ac\\u30c1\\u30e3\\u30d4\\u30f3\",\"screen_name\":\"vc_3000_nodoame\",\"location\":\"\\u5c45\\u5fc3\\u5730\\u306e\\u826f\\u3044\\u6240\",\"url\":null,\"description\":\"\\u540d\\u524d\\u306f\\u6050\\u7adc\\u3067\\u30a2\\u30a4\\u30b3\\u30f3\\u306f\\u30ad\\u30c4\\u30cd\\u3055\\u3093\\u3002\\u77e5\\u308b\\u4eba\\u305e\\u77e5\\u308b\\u30a2\\u30ab\\u30a6\\u30f3\\u30c8\\u306f\\u3053\\u3061\\u3089\\u3002\\u3054\\u5b58\\u77e5\\u3067\\u306a\\u3044\\u65b9\\u306f\\u521d\\u3081\\u307e\\u3057\\u3066\\u3002\\u3057\\u304b\\u3057\\u3001\\u66b4\\u8a00\\u3084\\u4e0b\\u30cd\\u30bf\\u3092\\u7e70\\u308a\\u5e83\\u3052\\u66b4\\u8d70\\u3057\\u3066\\u304a\\u308a\\u307e\\u3059\\u306e\\u3067\\u30d5\\u30a9\\u30ed\\u30fc\\u3059\\u308b\\u3053\\u3068\\u306f\\u304a\\u5968\\u3081\\u3057\\u307e\\u305b\\u3093\\u3002\\u305d\\u308c\\u3067\\u3082\\u826f\\u3044\\u65b9\\u306f\\u4e00\\u7dd2\\u306b\\u98f2\\u307f\\u307e\\u305b\\u3046\\u3002\\u3082\\u3046\\u4e00\\u5ea6\\u8a00\\u3044\\u307e\\u3059\\u30d5\\u30a9\\u30ed\\u30fc\\u3059\\u308b\\u3053\\u3068\\u306f\\u304a\\u5968\\u3081\\u3057\\u307e\\u305b\\u3093\\u3002\",\"protected\":false,\"followers_count\":17,\"friends_count\":18,\"listed_count\":0,\"created_at\":\"Sun Jan 19 23:26:11 +0000 2014\",\"favourites_count\":100,\"utc_offset\":null,\"time_zone\":null,\"geo_enabled\":false,\"verified\":false,\"statuses_count\":1016,\"lang\":\"ja\",\"contributors_enabled\":false,\"is_translator\":false,\"is_translation_enabled\":false,\"profile_background_color\":\"C0DEED\",\"profile_background_image_url\":\"http:\\/\\/abs.twimg.com\\/images\\/themes\\/theme1\\/bg.png\",\"profile_background_image_url_https\":\"https:\\/\\/abs.twimg.com\\/images\\/themes\\/theme1\\/bg.png\",\"profile_background_tile\":false,\"profile_image_url\":\"http:\\/\\/pbs.twimg.com\\/profile_images\\/432659505709461504\\/rOOq1Ex1_normal.jpeg\",\"profile_image_url_https\":\"https:\\/\\/pbs.twimg.com\\/profile_images\\/432659505709461504\\/rOOq1Ex1_normal.jpeg\",\"profile_link_color\":\"0084B4\",\"profile_sidebar_border_color\":\"C0DEED\",\"profile_sidebar_fill_color\":\"DDEEF6\",\"profile_text_color\":\"333333\",\"profile_use_background_image\":true,\"default_profile\":true,\"default_profile_image\":false,\"following\":null,\"follow_request_sent\":null,\"notifications\":null},\"geo\":null,\"coordinates\":null,\"place\":null,\"contributors\":null,\"retweet_count\":0,\"favorite_count\":0,\"entities\":{\"hashtags\":[],\"symbols\":[],\"urls\":[],\"user_mentions\":[]},\"favorited\":false,\"retweeted\":false,\"filter_level\":\"medium\",\"lang\":\"ja\"}"
"{\"created_at\":\"Mon Mar 24 23:27:22 +0000 2014\",\"id\":448239681704955904,\"id_str\":\"448239681704955904\",\"text\":\"('\\ud83d\\udc19')\\uff77\\uff6c\\uff71\\uff71\\uff71\\uff71\\uff71\\uff71\\uff71\\uff57\\uff57\\uff57\\uff57\\uff57\\uff57\\uff57\\uff57\\uff57\\uff57\\uff57\\uff57\\uff57\\uff57\\uff57\\uff57\\uff57\\uff57\\uff57\\uff57\\uff57\",\"source\":\"\\u003ca href=\\\"http:\\/\\/twpf.jp\\/__hote_chin__\\\" rel=\\\"nofollow\\\"\\u003eShootingStar for Hotepun edition\\u003c\\/a\\u003e\",\"truncated\":false,\"in_reply_to_status_id\":null,\"in_reply_to_status_id_str\":null,\"in_reply_to_user_id\":null,\"in_reply_to_user_id_str\":null,\"in_reply_to_screen_name\":null,\"user\":{\"id\":1896040424,\"id_str\":\"1896040424\",\"name\":\"\\u307b\\u3066\\u3118\\u3093\",\"screen_name\":\"ht5_\",\"location\":\"pso2\\u30af\\u30a8\\u30b9\\u30c8\\u30ab\\u30a6\\u30f3\\u30bf\\u30fc\\u306e\\u5c4b\\u6839\\u306e\\u4e0a\",\"url\":\"http:\\/\\/b.caribbeancom.com\",\"description\":\"\\u3069\\u3046\\u3082\\uff3e\\u30fc\\uff3eBr\\/Hu\\u4f7f\\u3044\\u306e\\u5730\\u96f7\\u3067\\u3059w\\u51fa\\u8377\\u597d\\u304d\\uff57\\u2190(\\u6fc0\\u304b\\u308f\\uff57\\u5e8a\\u307a\\u308d\\u307a\\u308d\\uff57pso2\\u3084\\u3063\\u3066\\u307e\\u3059\\uff57\\u5b9f\\u529b\\u306f\\u7121\\u8ab2\\u91d1\\u304f\\u3089\\u3044\\u3067\\u3059\\uff57\\u3042\\u3068psp2i\\u3082\\u3084\\u3063\\u3066\\u307e\\u3057\\u305f\\uff01 \\u30e9\\u30c3\\u30d4\\u30fc\\u5927\\u597d\\u304d\\u3067\\u3059\\uff57\\u30e9\\u30c3\\u30d4\\u30fc\\u306f\\u795e\\uff01\\u3061\\u3093\\u3053\\u52c3\\u3063\\u305f\\uff01\\u5e8a\\u30da\\u30ed\\u306f\\u4eba\\u751f\\u3067\\u3059\\uff57pso2\\u5927\\u597d\\u304d\\u306a\\u4eba\\u306f\\u5f37\\u5236\\u30d5\\u30ec\\u3067\\u3059\\u3088\\uff01\\uff57BL\\u3057\\u306a\\u3044\\u3067\\u306d\\uff57\",\"protected\":false,\"followers_count\":2858,\"friends_count\":177,\"listed_count\":104,\"created_at\":\"Mon Sep 23 03:45:39 +0000 2013\",\"favourites_count\":104059,\"utc_offset\":null,\"time_zone\":null,\"geo_enabled\":false,\"verified\":false,\"statuses_count\":37497,\"lang\":\"ja\",\"contributors_enabled\":false,\"is_translator\":false,\"is_translation_enabled\":false,\"profile_background_color\":\"C0DEED\",\"profile_background_image_url\":\"http:\\/\\/abs.twimg.com\\/images\\/themes\\/theme1\\/bg.png\",\"profile_background_image_url_https\":\"https:\\/\\/abs.twimg.com\\/images\\/themes\\/theme1\\/bg.png\",\"profile_background_tile\":false,\"profile_image_url\":\"http:\\/\\/pbs.twimg.com\\/profile_images\\/447379069571588096\\/RQFrgxa3_normal.jpeg\",\"profile_image_url_https\":\"https:\\/\\/pbs.twimg.com\\/profile_images\\/447379069571588096\\/RQFrgxa3_normal.jpeg\",\"profile_banner_url\":\"https:\\/\\/pbs.twimg.com\\/profile_banners\\/1896040424\\/1393338675\",\"profile_link_color\":\"0084B4\",\"profile_sidebar_border_color\":\"C0DEED\",\"profile_sidebar_fill_color\":\"DDEEF6\",\"profile_text_color\":\"333333\",\"profile_use_background_image\":true,\"default_profile\":true,\"default_profile_image\":false,\"following\":null,\"follow_request_sent\":null,\"notifications\":null},\"geo\":null,\"coordinates\":null,\"place\":null,\"contributors\":null,\"retweet_count\":0,\"favorite_count\":0,\"entities\":{\"hashtags\":[],\"symbols\":[],\"urls\":[],\"user_mentions\":[]},\"favorited\":false,\"retweeted\":false,\"filter_level\":\"medium\",\"lang\":\"ja\"}"
